{"segments": [
    {
        "provider": "BlueKai",
        "name": "All-->3rd Party Data-->BlueKai-->Bluekai Data-->Oracle BlueKai-->In-Market-->Retail",
        "description": "You are classified as part of this audience based on data licensed from a third party"
    },
    {
        "provider": "BlueKai",
        "name": "All-->3rd Party Data-->BlueKai-->Audiences by Oracle-->Travel and Tourism-->In-Market-->Destinations-->Asia-->South Asia-->India (incl. Delhi)",
        "description": "You are classified as part of this audience based on data licensed from a third party"
    },
    {
        "provider": "BlueKai",
        "name": "All-->3rd Party Data-->BlueKai-->Bluekai Data-->Oracle BlueKai-->Television-->Viewership-->Shows",
        "description": "You are classified as part of this audience based on data licensed from a third party"
    },
    {
        "provider": "BlueKai",
        "name": "All-->3rd Party Data-->BlueKai-->Bluekai Data-->Oracle BlueKai-->In-Market-->Retail-->Cell Phones and Plans-->Types-->Smartphones",
        "description": "You are classified as part of this audience based on data licensed from a third party"
    },
    {
        "provider": "BlueKai",
        "name": "All-->3rd Party Data-->BlueKai-->Audiences by Oracle-->Consumer Packaged Goods (CPG)-->Interest (Affinity)-->Product Categories-->Household Supplies",
        "description": "You are classified as part of this audience based on data licensed from a third party"
    },
    {
        "advertiser": "Higher Education",
        "description": "You are classified as part of this audience because you exhibit behaviors similar to other customers of an advertiser"
    },
    {
        "name": "All-->Interest-->Business and Industry-->Personal finance",
        "description": "You are classified as part of an Oath audience based on Oath's prediction of your interests"
    },
    {
        "provider": "BlueKai",
        "name": "All-->3rd Party Data-->BlueKai-->Audiences by Oracle-->Travel and Tourism-->Interest (Affinity)",
        "description": "You are classified as part of this audience based on data licensed from a third party"
    },
    {
        "provider": "Cross Pixel",
        "name": "All-->3rd Party Data-->Cross Pixel-->Audience Profiles-->Technology-->IOS Users",
        "description": "You are classified as part of this audience based on data licensed from a third party"
    },
    {
        "name": "GSK_Institucional_profissionais_de_sa\\u00FAde_HIV",
        "description": "You are classified as part of this Oath audience based on your online activities"
    },
    {
        "provider": "BlueKai",
        "name": "All-->3rd Party Data-->BlueKai-->Audiences by Oracle-->Demographics-->Gender-->Females",
        "description": "You are classified as part of this audience based on data licensed from a third party"
    },
    {
        "name": "Culture_Photography_REACH",
        "description": "You are classified as part of this Oath audience based on your online activities"
    },
    {
        "advertiser": "Z Lifestyle LLC",
        "description": "You are classified as part of this conversion rule audience based on your online activities and because you are of interest to an advertiser"
    },
    {
        "provider": "BlueKai",
        "name": "All-->3rd Party Data-->BlueKai-->Bluekai Data-->Oracle BlueKai-->Television-->Viewership",
        "description": "You are classified as part of this audience based on data licensed from a third party"
    },
    {
        "name": "AUD_DOCTORES Y ESTUDIANTES DE MEDICINA",
        "description": "You are classified as part of this Oath audience based on your online activities"
    },
    {
        "provider": "BlueKai",
        "name": "All-->3rd Party Data-->BlueKai-->Branded Data-->Comscore-->Digital-->Demos (US)-->Age & Gender-->Persons: 25+",
        "description": "You are classified as part of this audience based on data licensed from a third party"
    },
    {
        "provider": "Cross Pixel",
        "name": "All-->3rd Party Data-->Cross Pixel-->Audience Profiles-->Technology-->Gadget Groupies",
        "description": "You are classified as part of this audience based on data licensed from a third party"
    },
    {
        "provider": "BlueKai",
        "name": "All-->3rd Party Data-->BlueKai-->Branded Data-->Comscore-->Digital-->Demos (US)-->Age & Gender-->Females: 21+",
        "description": "You are classified as part of this audience based on data licensed from a third party"
    },
    {
        "name": "All-->Interest-->Business and Industry-->Personal finance-->Insurance",
        "description": "You are classified as part of an Oath audience based on Oath's prediction of your interests"
    },
    {
        "name": "BR_Showcase_Soccer",
        "description": "You are classified as part of this Oath audience based on your online activities"
    },
    {
        "provider": "BlueKai",
        "name": "All-->3rd Party Data-->BlueKai-->Bluekai Data-->Oracle DLX (Datalogix)",
        "description": "You are classified as part of this audience based on data licensed from a third party"
    },
    {
        "name": "Business Travellers",
        "description": "You are classified as part of this Oath audience based on your online activities"
    },
    {
        "provider": "Cross Pixel",
        "name": "All-->3rd Party Data-->Cross Pixel-->Shopping-->Cell Phones-->Cell Phone",
        "description": "You are classified as part of this audience based on data licensed from a third party"
    },
    {
        "provider": "BlueKai",
        "name": "All-->3rd Party Data-->BlueKai-->Audiences by Oracle-->Hobbies and Interests (Affinity)-->Hobbies-->Games",
        "description": "You are classified as part of this audience based on data licensed from a third party"
    },
    {
        "provider": "BlueKai",
        "name": "All-->3rd Party Data-->BlueKai-->Audiences by Oracle-->Business (B2B)-->Firmographics (Company Attributes)-->Company Industry-->Healthcare and Social Work",
        "description": "You are classified as part of this audience based on data licensed from a third party"
    },
    {
        "advertiser": "M\\u00E1ster Marketing Digital UCM - Grupo Mayo",
        "description": "You are classified as part of this audience based on incoming Mail"
    },
    {
        "provider": "BlueKai",
        "name": "All-->3rd Party Data-->BlueKai-->Audiences by Oracle-->Consumer Packaged Goods (CPG)-->Interest (Affinity)",
        "description": "You are classified as part of this audience based on data licensed from a third party"
    },
    {
        "provider": "BlueKai",
        "name": "All-->3rd Party Data-->BlueKai-->Audiences by Oracle-->Hobbies and Interests (Affinity)-->Public Interest",
        "description": "You are classified as part of this audience based on data licensed from a third party"
    },
    {
        "provider": "BlueKai",
        "name": "All-->3rd Party Data-->BlueKai-->Audiences by Oracle-->Travel and Tourism-->Interest (Affinity)-->Destinations-->Europe-->Italy (incl. Rome)",
        "description": "You are classified as part of this audience based on data licensed from a third party"
    },
    {
        "provider": "BlueKai",
        "name": "All-->3rd Party Data-->BlueKai-->Audiences by Oracle-->Travel and Tourism-->In-Market",
        "description": "You are classified as part of this audience based on data licensed from a third party"
    },
    {
        "provider": "BlueKai",
        "name": "All-->3rd Party Data-->BlueKai-->Audiences by Oracle-->Financial Services-->Insurance",
        "description": "You are classified as part of this audience based on data licensed from a third party"
    },
    {
        "name": "CO_Test_Tienda Cerca_Ciclismo",
        "description": "You are classified as part of this Oath audience based on your online activities"
    },
    {
        "provider": "BlueKai",
        "name": "All-->3rd Party Data-->BlueKai-->Bluekai Data-->Oracle BlueKai-->In-Market",
        "description": "You are classified as part of this audience based on data licensed from a third party"
    },
    {
        "provider": "BlueKai",
        "name": "All-->3rd Party Data-->BlueKai-->Audiences by Oracle-->Business (B2B)-->Firmographics (Company Attributes)-->Company Industry-->Real Estate",
        "description": "You are classified as part of this audience based on data licensed from a third party"
    },
    {
        "provider": "BlueKai",
        "name": "All-->3rd Party Data-->BlueKai-->Bluekai Data-->Oracle BlueKai-->Demographics-->Home Attributes-->Property Type",
        "description": "You are classified as part of this audience based on data licensed from a third party"
    },
    {
        "name": "ALL-High School Graduate",
        "description": "You are classified as part of this Oath audience based on your online activities"
    },
    {
        "advertiser": "Lightspeed",
        "description": "You are classified as part of this audience based on incoming Mail"
    },
    {
        "advertiser": "TEST TEST TEST",
        "description": "You are classified as part of this audience based on incoming Mail"
    },
    {
        "provider": "BlueKai",
        "name": "All-->3rd Party Data-->BlueKai-->Audiences by Oracle-->Travel and Tourism-->In-Market-->Destinations-->Europe-->Italian Peninsula-->Italy (incl. Rome)",
        "description": "You are classified as part of this audience based on data licensed from a third party"
    },
    {
        "name": "CWB B2B - Dietitan and Nurse Practitioners",
        "description": "You are classified as part of this Oath audience based on your online activities"
    },
    {
        "provider": "BlueKai",
        "name": "All-->3rd Party Data-->BlueKai-->Audiences by Oracle-->Financial Services",
        "description": "You are classified as part of this audience based on data licensed from a third party"
    },
    {
        "provider": "BlueKai",
        "name": "All-->3rd Party Data-->BlueKai-->Audiences by Oracle-->Consumer Packaged Goods (CPG)-->Interest (Affinity)-->Product Categories-->Health and Beauty Products-->Hair Care",
        "description": "You are classified as part of this audience based on data licensed from a third party"
    },
    {
        "provider": "BlueKai",
        "name": "All-->3rd Party Data-->BlueKai-->Branded Data-->Comscore-->Digital-->Demos (US)-->Age & Gender-->Persons: 18-49",
        "description": "You are classified as part of this audience based on data licensed from a third party"
    },
    {
        "provider": "BlueKai",
        "name": "All-->3rd Party Data-->BlueKai-->Branded Data-->Comscore-->Digital-->Demos (US)-->Age & Gender-->Persons: 25-49",
        "description": "You are classified as part of this audience based on data licensed from a third party"
    },
    {
        "provider": "BlueKai",
        "name": "All-->3rd Party Data-->BlueKai-->Audiences by Oracle-->Travel and Tourism-->Interest (Affinity)-->Destinations-->Europe-->United Kingdom (UK)",
        "description": "You are classified as part of this audience based on data licensed from a third party"
    },
    {
        "name": "Oracle B2B: Healthcare - All Medical Professions",
        "description": "You are classified as part of this Oath audience based on your online activities"
    },
    {
        "name": "sales & marketing decision makers_3p",
        "description": "You are classified as part of this Oath audience based on your online activities"
    },
    {
        "advertiser": "Lendingtree LLC",
        "description": "You are classified as part of this audience based on incoming Mail"
    },
    {
        "name": "CESIF_HEALTHCARE",
        "description": "You are classified as part of this Oath audience based on your online activities"
    },
    {
        "provider": "BlueKai",
        "name": "All-->3rd Party Data-->BlueKai-->Audiences by Oracle-->Consumer Packaged Goods (CPG)-->Interest (Affinity)-->Product Categories-->Frozen Foods",
        "description": "You are classified as part of this audience based on data licensed from a third party"
    },
    {
        "provider": "BlueKai",
        "name": "All-->3rd Party Data-->BlueKai-->Audiences by Oracle-->Hobbies and Interests (Affinity)-->Education and Career",
        "description": "You are classified as part of this audience based on data licensed from a third party"
    },
    {
        "provider": "BlueKai",
        "name": "All-->3rd Party Data-->BlueKai-->Bluekai Data-->Oracle BlueKai-->In-Market-->Travel and Tourism",
        "description": "You are classified as part of this audience based on data licensed from a third party"
    },
    {
        "provider": "Cross Pixel",
        "name": "All-->3rd Party Data-->Cross Pixel-->Audience Profiles-->Holidays",
        "description": "You are classified as part of this audience based on data licensed from a third party"
    },
    {
        "provider": "BlueKai",
        "name": "All-->3rd Party Data-->BlueKai-->Audiences by Oracle-->Hobbies and Interests (Affinity)-->Science and Humanities-->Architecture and Design",
        "description": "You are classified as part of this audience based on data licensed from a third party"
    },
    {
        "name": "Sephora Beauty Segment Composite",
        "description": "You are classified as part of this Oath audience based on your online activities"
    },
    {
        "provider": "BlueKai",
        "name": "All-->3rd Party Data-->BlueKai-->Bluekai Data-->Oracle BlueKai-->In-Market-->Travel and Tourism-->Air Travel-->Destination Locations-->International",
        "description": "You are classified as part of this audience based on data licensed from a third party"
    },
    {
        "provider": "BlueKai",
        "name": "All-->3rd Party Data-->BlueKai-->Audiences by Oracle-->Hobbies and Interests (Affinity)-->Beauty and Style-->Fashion and Accessories",
        "description": "You are classified as part of this audience based on data licensed from a third party"
    },
    {
        "provider": "BlueKai",
        "name": "All-->3rd Party Data-->BlueKai-->Bluekai Data-->Oracle BlueKai-->Demographics-->Home Attributes",
        "description": "You are classified as part of this audience based on data licensed from a third party"
    },
    {
        "provider": "BlueKai",
        "name": "All-->3rd Party Data-->BlueKai-->Bluekai Data-->Oracle BlueKai-->Demographics-->Age-->Ages 30-39-->Ages 35-39",
        "description": "You are classified as part of this audience based on data licensed from a third party"
    },
    {
        "provider": "BlueKai",
        "name": "All-->3rd Party Data-->BlueKai-->Bluekai Data-->Oracle BlueKai-->In-Market-->Travel and Tourism-->Air Travel-->Destination Locations-->International-->Europe-->Italy (incl. Rome)",
        "description": "You are classified as part of this audience based on data licensed from a third party"
    },
    {
        "provider": "Cross Pixel",
        "name": "All-->3rd Party Data-->Cross Pixel-->Shopping-->Cell Phones-->Smart Phones",
        "description": "You are classified as part of this audience based on data licensed from a third party"
    },
    {
        "provider": "BlueKai",
        "name": "All-->3rd Party Data-->BlueKai-->Bluekai Data-->User Country-->United States",
        "description": "You are classified as part of this audience based on data licensed from a third party"
    },
    {
        "provider": "BlueKai",
        "name": "All-->3rd Party Data-->BlueKai-->Audiences by Oracle-->Travel and Tourism-->In-Market-->Destinations-->Europe",
        "description": "You are classified as part of this audience based on data licensed from a third party"
    },
    {
        "provider": "BlueKai",
        "name": "All-->3rd Party Data-->BlueKai-->Audiences by Oracle-->Hobbies and Interests (Affinity)-->Home and Garden-->Home Decorating",
        "description": "You are classified as part of this audience based on data licensed from a third party"
    },
    {
        "advertiser": "Traeger Pellet Grills, LLC",
        "description": "You are classified as part of this conversion rule audience based on your online activities and because you are of interest to an advertiser"
    },
    {
        "provider": "BlueKai",
        "name": "All-->3rd Party Data-->BlueKai-->Audiences by Oracle-->Travel and Tourism-->In-Market-->Destinations-->Asia-->East Asia",
        "description": "You are classified as part of this audience based on data licensed from a third party"
    },
    {
        "name": "FSS - Verizon + 3P - Gov/Healthcare Professions",
        "description": "You are classified as part of this Oath audience based on your online activities"
    },
    {
        "provider": "BlueKai",
        "name": "All-->3rd Party Data-->BlueKai-->Bluekai Data-->Oracle BlueKai-->In-Market-->Travel and Tourism-->Air Travel-->Destination Locations-->International-->Europe",
        "description": "You are classified as part of this audience based on data licensed from a third party"
    },
    {
        "provider": "BlueKai",
        "name": "All-->3rd Party Data-->BlueKai-->Bluekai Data-->Oracle BlueKai-->Interest-->Politics and Society-->Charities and Non-Profits",
        "description": "You are classified as part of this audience based on data licensed from a third party"
    },
    {
        "provider": "BlueKai",
        "name": "All-->3rd Party Data-->BlueKai-->Audiences by Oracle-->Media and Entertainment-->Television (TV)-->Interest-->Networks-->MTV",
        "description": "You are classified as part of this audience based on data licensed from a third party"
    },
    {
        "name": "APAC_SG_3P BlueKai Travel interest to EU",
        "description": "You are classified as part of this Oath audience based on your online activities"
    },
    {
        "provider": "BlueKai",
        "name": "All-->3rd Party Data-->BlueKai-->Audiences by Oracle-->Hobbies and Interests (Affinity)-->Health and Fitness",
        "description": "You are classified as part of this audience based on data licensed from a third party"
    },
    {
        "name": "Concerts_Various_Interest_Globales",
        "description": "You are classified as part of this Oath audience based on your online activities"
    },
    {
        "advertiser": "Macy's, Inc.",
        "description": "You are classified as part of this conversion rule audience based on your online activities and because you are of interest to an advertiser"
    },
    {
        "provider": "BlueKai",
        "name": "All-->3rd Party Data-->BlueKai-->Audiences by Oracle-->Hobbies and Interests (Affinity)-->Home and Garden-->Appliances",
        "description": "You are classified as part of this audience based on data licensed from a third party"
    },
    {
        "name": "Home Changers UK/IE",
        "description": "You are classified as part of this Oath audience based on your online activities"
    },
    {
        "advertiser": "Adobe Systems Incorporated",
        "description": "You are classified as part of this custom audience because you are a current or prospective customer an advertiser"
    },
    {
        "provider": "BlueKai",
        "name": "All-->3rd Party Data-->BlueKai-->Audiences by Oracle-->Business (B2B)-->Firmographics (Company Attributes)-->Company Industry-->Education-->Schools",
        "description": "You are classified as part of this audience based on data licensed from a third party"
    },
    {
        "provider": "BlueKai",
        "name": "All-->3rd Party Data-->BlueKai-->Audiences by Oracle-->Retail-->In-Market-->Home and Garden-->Outdoors",
        "description": "You are classified as part of this audience based on data licensed from a third party"
    },
    {
        "provider": "BlueKai",
        "name": "All-->3rd Party Data-->BlueKai-->Audiences by Oracle-->Travel and Tourism-->In-Market-->Destinations-->Asia-->East Asia-->Japan (incl. Tokyo)",
        "description": "You are classified as part of this audience based on data licensed from a third party"
    },
    {
        "provider": "Cross Pixel",
        "name": "All-->3rd Party Data-->Cross Pixel-->Audience Profiles-->Television Viewers-->ESPN viewers",
        "description": "You are classified as part of this audience based on data licensed from a third party"
    },
    {
        "provider": "BlueKai",
        "name": "All-->3rd Party Data-->BlueKai-->Bluekai Data-->Oracle BlueKai-->In-Market-->Retail-->Cell Phones and Plans",
        "description": "You are classified as part of this audience based on data licensed from a third party"
    },
    {
        "name": "Simplisafe - Home & Garden",
        "description": "You are classified as part of this Oath audience based on your online activities"
    },
    {
        "name": "Composite Audience_Home-and-Garden #2",
        "description": "You are classified as part of this Oath audience based on your online activities"
    },
    {
        "name": "Zemanta - Oceania/Australia Travel",
        "description": "You are classified as part of this Oath audience based on your online activities"
    },
    {
        "name": "3RD - Home&Garden, DIY, Lawn - Stihl",
        "description": "You are classified as part of this Oath audience based on your online activities"
    },
    {
        "provider": "BlueKai",
        "name": "All-->3rd Party Data-->BlueKai-->Audiences by Oracle-->Media and Entertainment-->Events and Attractions",
        "description": "You are classified as part of this audience based on data licensed from a third party"
    },
    {
        "provider": "BlueKai",
        "name": "All-->3rd Party Data-->BlueKai-->Audiences by Oracle-->Travel and Tourism-->In-Market-->Destinations-->Europe-->Italian Peninsula",
        "description": "You are classified as part of this audience based on data licensed from a third party"
    },
    {
        "provider": "BlueKai",
        "name": "All-->3rd Party Data-->BlueKai-->Bluekai Data-->Oracle BlueKai-->In-Market-->Travel and Tourism-->Air Travel-->Destination Locations-->International-->Asia",
        "description": "You are classified as part of this audience based on data licensed from a third party"
    },
    {
        "advertiser": "Genius Monkey",
        "description": "You are classified as part of this audience based on incoming Mail"
    },
    {
        "provider": "BlueKai",
        "name": "All-->3rd Party Data-->BlueKai-->Audiences by Oracle-->Business (B2B)-->Firmographics (Company Attributes)-->Company Industry-->Hospitality and Food Service-->Accommodation",
        "description": "You are classified as part of this audience based on data licensed from a third party"
    },
    {
        "name": "Nursing Interest, Healthcare, Hospital Workers (1P+3P)",
        "description": "You are classified as part of this Oath audience based on your online activities"
    },
    {
        "provider": "BlueKai",
        "name": "All-->3rd Party Data-->BlueKai-->Audiences by Oracle-->Media and Entertainment-->Gaming",
        "description": "You are classified as part of this audience based on data licensed from a third party"
    },
    {
        "provider": "Cross Pixel",
        "name": "All-->3rd Party Data-->Cross Pixel-->Audience Profiles-->Psychographics-->Social Media Influencers",
        "description": "You are classified as part of this audience based on data licensed from a third party"
    },
    {
        "provider": "BlueKai",
        "name": "All-->3rd Party Data-->BlueKai-->Audiences by Oracle-->Consumer Technology-->In-Market-->Mobile Phones (Cell Phones)-->Mobile Phone Brands-->Apple iPhone",
        "description": "You are classified as part of this audience based on data licensed from a third party"
    },
    {
        "provider": "BlueKai",
        "name": "All-->3rd Party Data-->BlueKai-->Bluekai Data-->Oracle BlueKai-->Demographics-->Education-->High School Diploma",
        "description": "You are classified as part of this audience based on data licensed from a third party"
    },
    {
        "name": "CO_Budweiser_Cruz Roja_True King_Activists",
        "description": "You are classified as part of this Oath audience based on your online activities"
    },
    {
        "provider": "BlueKai",
        "name": "All-->3rd Party Data-->BlueKai-->Audiences by Oracle-->Hobbies and Interests (Affinity)-->Home and Garden-->Gardening, Lawn and Yard Care",
        "description": "You are classified as part of this audience based on data licensed from a third party"
    },
    {
        "provider": "BlueKai",
        "name": "All-->3rd Party Data-->BlueKai-->Bluekai Data-->Oracle BlueKai-->Interest-->Lifestyles",
        "description": "You are classified as part of this audience based on data licensed from a third party"
    },
    {
        "provider": "BlueKai",
        "name": "All-->3rd Party Data-->BlueKai-->Audiences by Oracle-->Travel and Tourism-->In-Market-->Destinations-->Europe-->France",
        "description": "You are classified as part of this audience based on data licensed from a third party"
    },
    {
        "provider": "BlueKai",
        "name": "All-->3rd Party Data-->BlueKai-->Audiences by Oracle-->Travel and Tourism-->In-Market-->Destinations-->Asia-->South Asia",
        "description": "You are classified as part of this audience based on data licensed from a third party"
    },
    {
        "provider": "BlueKai",
        "name": "All-->3rd Party Data-->BlueKai-->Audiences by Oracle-->Real Estate and Home Property Services-->Real Estate Attributes-->Ownership-->Renters",
        "description": "You are classified as part of this audience based on data licensed from a third party"
    },
    {
        "provider": "BlueKai",
        "name": "All-->3rd Party Data-->BlueKai-->Audiences by Oracle-->Business (B2B)-->Employee Attributes-->Professional Interest-->Operations",
        "description": "You are classified as part of this audience based on data licensed from a third party"
    },
    {
        "provider": "BlueKai",
        "name": "All-->3rd Party Data-->BlueKai-->Bluekai Data-->Oracle BlueKai-->Interest-->Food and Drink-->Recipes and Cooking",
        "description": "You are classified as part of this audience based on data licensed from a third party"
    },
    {
        "provider": "BlueKai",
        "name": "All-->3rd Party Data-->BlueKai-->Bluekai Data-->Oracle BlueKai-->Television",
        "description": "You are classified as part of this audience based on data licensed from a third party"
    },
    {
        "provider": "BlueKai",
        "name": "All-->3rd Party Data-->BlueKai-->Bluekai Data-->Oracle BlueKai-->Demographics-->Age-->Ages 30-39",
        "description": "You are classified as part of this audience based on data licensed from a third party"
    },
    {
        "advertiser": "Cross Pixel Media LLC",
        "description": "You are classified as part of this custom audience because you are a current or prospective customer an advertiser"
    },
    {
        "provider": "BlueKai",
        "name": "All-->3rd Party Data-->BlueKai-->Bluekai Data-->Oracle BlueKai-->Interest-->Politics and Society",
        "description": "You are classified as part of this audience based on data licensed from a third party"
    },
    {
        "name": "APAC_3P_Occupation_Doctor",
        "description": "You are classified as part of this Oath audience based on your online activities"
    },
    {
        "name": "Composite Audience_Housing-Rent-1",
        "description": "You are classified as part of this Oath audience based on your online activities"
    },
    {
        "provider": "BlueKai",
        "name": "All-->3rd Party Data-->BlueKai-->Audiences by Oracle-->Hobbies and Interests (Affinity)-->Health and Fitness-->Exercise",
        "description": "You are classified as part of this audience based on data licensed from a third party"
    },
    {
        "provider": "BlueKai",
        "name": "All-->3rd Party Data-->BlueKai-->Audiences by Oracle-->Travel and Tourism-->In-Market-->Destinations-->Asia",
        "description": "You are classified as part of this audience based on data licensed from a third party"
    },
    {
        "provider": "BlueKai",
        "name": "All-->3rd Party Data-->BlueKai-->Branded Data-->Comscore-->Digital-->Demos (US)-->Age & Gender-->Females: 35-54",
        "description": "You are classified as part of this audience based on data licensed from a third party"
    },
    {
        "provider": "BlueKai",
        "name": "All-->3rd Party Data-->BlueKai-->Audiences by Oracle-->Demographics-->Education",
        "description": "You are classified as part of this audience based on data licensed from a third party"
    },
    {
        "provider": "BlueKai",
        "name": "All-->3rd Party Data-->BlueKai-->Bluekai Data-->Oracle BlueKai-->In-Market-->Retail-->Cell Phones and Plans-->Devices-->Apple (iPhone)",
        "description": "You are classified as part of this audience based on data licensed from a third party"
    },
    {
        "provider": "BlueKai",
        "name": "All-->3rd Party Data-->BlueKai-->Audiences by Oracle-->Hobbies and Interests (Affinity)-->Hobbies-->Games-->Board Games",
        "description": "You are classified as part of this audience based on data licensed from a third party"
    },
    {
        "provider": "BlueKai",
        "name": "All-->3rd Party Data-->BlueKai-->Audiences by Oracle-->Media and Entertainment-->Television (TV)-->Interest-->Networks-->Bravo",
        "description": "You are classified as part of this audience based on data licensed from a third party"
    },
    {
        "provider": "BlueKai",
        "name": "All-->3rd Party Data-->BlueKai-->Branded Data-->Comscore-->Digital-->Demos (US)-->Age & Gender-->Persons: 18-44",
        "description": "You are classified as part of this audience based on data licensed from a third party"
    },
    {
        "provider": "BlueKai",
        "name": "All-->3rd Party Data-->BlueKai-->Branded Data-->Comscore-->Digital-->Demos (US)-->Age & Gender",
        "description": "You are classified as part of this audience based on data licensed from a third party"
    },
    {
        "provider": "BlueKai",
        "name": "All-->3rd Party Data-->BlueKai-->Audiences by Oracle-->Media and Entertainment-->Events and Attractions-->Music Concerts and Festivals",
        "description": "You are classified as part of this audience based on data licensed from a third party"
    },
    {
        "provider": "BlueKai",
        "name": "All-->3rd Party Data-->BlueKai-->Bluekai Data-->Oracle DLX (Datalogix)-->DLX Demographics",
        "description": "You are classified as part of this audience based on data licensed from a third party"
    },
    {
        "name": "All-->Interest-->Business and Industry",
        "description": "You are classified as part of an Oath audience based on Oath's prediction of your interests"
    },
    {
        "provider": "BlueKai",
        "name": "All-->3rd Party Data-->BlueKai-->Audiences by Oracle-->Consumer Technology-->In-Market-->Mobile Phones (Cell Phones)",
        "description": "You are classified as part of this audience based on data licensed from a third party"
    },
    {
        "provider": "BlueKai",
        "name": "All-->3rd Party Data-->BlueKai-->Bluekai Data-->Oracle BlueKai-->In-Market-->Travel and Tourism-->Air Travel-->Destination Locations-->International-->Asia-->India (incl. Delhi)",
        "description": "You are classified as part of this audience based on data licensed from a third party"
    },
    {
        "provider": "BlueKai",
        "name": "All-->3rd Party Data-->BlueKai-->Audiences by Oracle-->Hobbies and Interests (Affinity)-->Public Interest-->Charity (Philanthropy)",
        "description": "You are classified as part of this audience based on data licensed from a third party"
    },
    {
        "provider": "BlueKai",
        "name": "All-->3rd Party Data-->BlueKai-->Audiences by Oracle-->Retail-->In-Market-->Fashion and Apparel-->Clothing",
        "description": "You are classified as part of this audience based on data licensed from a third party"
    },
    {
        "provider": "Cross Pixel",
        "name": "All-->3rd Party Data-->Cross Pixel-->Audience Profiles-->Technology",
        "description": "You are classified as part of this audience based on data licensed from a third party"
    },
    {
        "provider": "BlueKai",
        "name": "All-->3rd Party Data-->BlueKai-->Audiences by Oracle-->Consumer Technology-->Deviceographics (Device Ownership)",
        "description": "You are classified as part of this audience based on data licensed from a third party"
    },
    {
        "provider": "Cross Pixel",
        "name": "All-->3rd Party Data-->Cross Pixel-->Audience Profiles-->Holidays-->Gifts for Techies",
        "description": "You are classified as part of this audience based on data licensed from a third party"
    },
    {
        "provider": "BlueKai",
        "name": "All-->3rd Party Data-->BlueKai-->Audiences by Oracle-->Business (B2B)",
        "description": "You are classified as part of this audience based on data licensed from a third party"
    },
    {
        "provider": "BlueKai",
        "name": "All-->3rd Party Data-->BlueKai-->Bluekai Data-->Oracle BlueKai-->In-Market-->Travel and Tourism-->Air Travel-->International Flyers",
        "description": "You are classified as part of this audience based on data licensed from a third party"
    },
    {
        "provider": "Cross Pixel",
        "name": "All-->3rd Party Data-->Cross Pixel-->Shopping-->Power Shoppers",
        "description": "You are classified as part of this audience based on data licensed from a third party"
    },
    {
        "provider": "Cross Pixel",
        "name": "All-->3rd Party Data-->Cross Pixel-->Shopping-->Cell Phones",
        "description": "You are classified as part of this audience based on data licensed from a third party"
    },
    {
        "provider": "BlueKai",
        "name": "All-->3rd Party Data-->BlueKai-->Audiences by Oracle-->Business (B2B)-->Firmographics (Company Attributes)-->Company Size-->500-1,000 Employees",
        "description": "You are classified as part of this audience based on data licensed from a third party"
    },
    {
        "provider": "BlueKai",
        "name": "All-->3rd Party Data-->BlueKai-->Audiences by Oracle-->Travel and Tourism-->Interest (Affinity)-->Products-->Air Travel",
        "description": "You are classified as part of this audience based on data licensed from a third party"
    },
    {
        "provider": "BlueKai",
        "name": "All-->3rd Party Data-->BlueKai-->Audiences by Oracle-->Consumer Packaged Goods (CPG)-->Interest (Affinity)-->Recipes and Cooking",
        "description": "You are classified as part of this audience based on data licensed from a third party"
    },
    {
        "provider": "BlueKai",
        "name": "All-->3rd Party Data-->BlueKai-->Audiences by Oracle-->Media and Entertainment-->Music-->Genres-->Classical",
        "description": "You are classified as part of this audience based on data licensed from a third party"
    },
    {
        "provider": "BlueKai",
        "name": "All-->3rd Party Data-->BlueKai-->Bluekai Data-->Oracle BlueKai-->Interest-->Sports and Recreation-->Sports-->Golf",
        "description": "You are classified as part of this audience based on data licensed from a third party"
    },
    {
        "provider": "BlueKai",
        "name": "All-->3rd Party Data-->BlueKai-->Bluekai Data-->Oracle BlueKai-->Interest-->Technology and Computers-->Brands-->Apple",
        "description": "You are classified as part of this audience based on data licensed from a third party"
    },
    {
        "provider": "BlueKai",
        "name": "All-->3rd Party Data-->BlueKai-->Branded Data-->Comscore-->Digital-->Demos (US)-->Age & Gender-->Females: 25+",
        "description": "You are classified as part of this audience based on data licensed from a third party"
    },
    {
        "provider": "Cross Pixel",
        "name": "All-->3rd Party Data-->Cross Pixel-->Audience Profiles-->Television Viewers-->Cartoon viewers",
        "description": "You are classified as part of this audience based on data licensed from a third party"
    },
    {
        "provider": "BlueKai",
        "name": "All-->3rd Party Data-->BlueKai-->Audiences by Oracle-->Travel and Tourism-->In-Market-->Products-->Air Travel",
        "description": "You are classified as part of this audience based on data licensed from a third party"
    },
    {
        "provider": "BlueKai",
        "name": "All-->3rd Party Data-->BlueKai-->Bluekai Data-->Oracle BlueKai-->Demographics-->Gender-->Females",
        "description": "You are classified as part of this audience based on data licensed from a third party"
    },
    {
        "advertiser": "TEST TEST TEST",
        "description": "You are classified as part of this audience based on your online activities and because you are of interest to an advertiser"
    },
    {
        "provider": "BlueKai",
        "name": "All-->3rd Party Data-->BlueKai-->Audiences by Oracle-->Business (B2B)-->Employee Attributes-->Occupations and Job Functions-->Education and Training",
        "description": "You are classified as part of this audience based on data licensed from a third party"
    },
    {
        "provider": "BlueKai",
        "name": "All-->3rd Party Data-->BlueKai-->Audiences by Oracle-->Travel and Tourism",
        "description": "You are classified as part of this audience based on data licensed from a third party"
    },
    {
        "provider": "BlueKai",
        "name": "All-->3rd Party Data-->BlueKai-->Audiences by Oracle-->Business (B2B)-->Firmographics (Company Attributes)-->Company Industry-->Healthcare and Social Work-->Nursing and Residential Care",
        "description": "You are classified as part of this audience based on data licensed from a third party"
    },
    {
        "provider": "BlueKai",
        "name": "All-->3rd Party Data-->BlueKai-->Audiences by Oracle-->Business (B2B)-->Employee Attributes-->Professional Interest-->Management",
        "description": "You are classified as part of this audience based on data licensed from a third party"
    },
    {
        "provider": "BlueKai",
        "name": "All-->3rd Party Data-->BlueKai-->Branded Data-->Comscore-->Digital-->Demos (US)-->Age & Gender-->Persons: 25-44",
        "description": "You are classified as part of this audience based on data licensed from a third party"
    },
    {
        "provider": "BlueKai",
        "name": "All-->3rd Party Data-->BlueKai-->Bluekai Data-->Oracle BlueKai-->Demographics-->Home Attributes-->Property Type-->Single Family",
        "description": "You are classified as part of this audience based on data licensed from a third party"
    },
    {
        "provider": "BlueKai",
        "name": "All-->3rd Party Data-->BlueKai-->Audiences by Oracle-->Hobbies and Interests (Affinity)-->Internet and Online Activities-->Social Influencers",
        "description": "You are classified as part of this audience based on data licensed from a third party"
    },
    {
        "provider": "BlueKai",
        "name": "All-->3rd Party Data-->BlueKai-->Branded Data-->Comscore-->Digital-->Demos (US)-->Age & Gender-->Persons: 21+",
        "description": "You are classified as part of this audience based on data licensed from a third party"
    },
    {
        "provider": "BlueKai",
        "name": "All-->3rd Party Data-->BlueKai-->Audiences by Oracle-->Consumer Technology-->Interest (Affinity)-->Mobile Phones (Cell Phones)",
        "description": "You are classified as part of this audience based on data licensed from a third party"
    },
    {
        "provider": "BlueKai",
        "name": "All-->3rd Party Data-->BlueKai-->Audiences by Oracle-->Travel and Tourism-->In-Market-->Destinations-->North America",
        "description": "You are classified as part of this audience based on data licensed from a third party"
    },
    {
        "provider": "BlueKai",
        "name": "All-->3rd Party Data-->BlueKai-->Audiences by Oracle-->Consumer Technology",
        "description": "You are classified as part of this audience based on data licensed from a third party"
    },
    {
        "provider": "BlueKai",
        "name": "All-->3rd Party Data-->BlueKai-->Bluekai Data-->Oracle BlueKai-->Interest-->Sports and Recreation-->Outdoor Activities",
        "description": "You are classified as part of this audience based on data licensed from a third party"
    },
    {
        "provider": "BlueKai",
        "name": "All-->3rd Party Data-->BlueKai-->Audiences by Oracle-->Demographics-->Language-->English",
        "description": "You are classified as part of this audience based on data licensed from a third party"
    },
    {
        "provider": "BlueKai",
        "name": "All-->3rd Party Data-->BlueKai-->Audiences by Oracle-->Demographics-->Age Broad-->Ages 30-39",
        "description": "You are classified as part of this audience based on data licensed from a third party"
    },
    {
        "provider": "BlueKai",
        "name": "All-->3rd Party Data-->BlueKai-->Bluekai Data-->Device Data",
        "description": "You are classified as part of this audience based on data licensed from a third party"
    },
    {
        "name": "APAC_SG_Healthcare Industry",
        "description": "You are classified as part of this Oath audience based on your online activities"
    },
    {
        "provider": "BlueKai",
        "name": "All-->3rd Party Data-->BlueKai-->Audiences by Oracle-->Hobbies and Interests (Affinity)-->Home and Garden-->Home Improvement (DIY)",
        "description": "You are classified as part of this audience based on data licensed from a third party"
    },
    {
        "provider": "BlueKai",
        "name": "All-->3rd Party Data-->BlueKai-->Audiences by Oracle-->Business (B2B)-->Employee Attributes-->Professional Interest-->Marketing",
        "description": "You are classified as part of this audience based on data licensed from a third party"
    },
    {
        "name": "Fashion_Beauty Care_REACH",
        "description": "You are classified as part of this Oath audience based on your online activities"
    },
    {
        "name": "Oracle B2B: Education Industry Job Functions",
        "description": "You are classified as part of this Oath audience based on your online activities"
    },
    {
        "provider": "BlueKai",
        "name": "All-->3rd Party Data-->BlueKai-->Audiences by Oracle-->Hobbies and Interests (Affinity)-->Pets",
        "description": "You are classified as part of this audience based on data licensed from a third party"
    },
    {
        "provider": "BlueKai",
        "name": "All-->3rd Party Data-->BlueKai-->Audiences by Oracle-->Media and Entertainment-->Sports and Recreational Activities-->Interest (Affinity)-->Team Sports-->Soccer (Football)",
        "description": "You are classified as part of this audience based on data licensed from a third party"
    },
    {
        "provider": "BlueKai",
        "name": "All-->3rd Party Data-->BlueKai-->Audiences by Oracle-->Travel and Tourism-->Travelers",
        "description": "You are classified as part of this audience based on data licensed from a third party"
    },
    {
        "name": "Mannings_ECOM_HAIR_Interest",
        "description": "You are classified as part of this Oath audience based on your online activities"
    },
    {
        "provider": "BlueKai",
        "name": "All-->3rd Party Data-->BlueKai-->Branded Data-->Comscore-->Digital",
        "description": "You are classified as part of this audience based on data licensed from a third party"
    },
    {
        "provider": "BlueKai",
        "name": "All-->3rd Party Data-->BlueKai-->Branded Data-->Comscore-->Digital-->Demos (US)-->Age & Gender-->Females: 25-54",
        "description": "You are classified as part of this audience based on data licensed from a third party"
    },
    {
        "provider": "BlueKai",
        "name": "All-->3rd Party Data-->BlueKai-->Audiences by Oracle-->Media and Entertainment-->Sports and Recreational Activities",
        "description": "You are classified as part of this audience based on data licensed from a third party"
    },
    {
        "advertiser": "JOHNSON & JOHNSON TAIWAN LTD.",
        "description": "You are classified as part of this audience based on incoming Mail"
    },
    {
        "provider": "BlueKai",
        "name": "All-->3rd Party Data-->BlueKai-->Bluekai Data-->Oracle DLX (Datalogix)-->DLX Demographics-->Gender-->Females",
        "description": "You are classified as part of this audience based on data licensed from a third party"
    },
    {
        "provider": "BlueKai",
        "name": "All-->3rd Party Data-->BlueKai-->Branded Data-->Comscore-->Digital-->Demos (US)-->Age & Gender-->Females: 18-54",
        "description": "You are classified as part of this audience based on data licensed from a third party"
    },
    {
        "provider": "BlueKai",
        "name": "All-->3rd Party Data-->BlueKai-->Audiences by Oracle-->Real Estate and Home Property Services-->Real Estate Attributes",
        "description": "You are classified as part of this audience based on data licensed from a third party"
    },
    {
        "provider": "BlueKai",
        "name": "All-->3rd Party Data-->BlueKai-->Audiences by Oracle-->Media and Entertainment",
        "description": "You are classified as part of this audience based on data licensed from a third party"
    },
    {
        "provider": "BlueKai",
        "name": "All-->3rd Party Data-->BlueKai-->Audiences by Oracle-->Travel and Tourism-->Interest (Affinity)-->Destinations-->Oceania and Australia",
        "description": "You are classified as part of this audience based on data licensed from a third party"
    },
    {
        "provider": "BlueKai",
        "name": "All-->3rd Party Data-->BlueKai-->Audiences by Oracle-->Consumer Packaged Goods (CPG)-->Interest (Affinity)-->Product Categories-->Health and Beauty Products",
        "description": "You are classified as part of this audience based on data licensed from a third party"
    },
    {
        "provider": "BlueKai",
        "name": "All-->3rd Party Data-->BlueKai-->Audiences by Oracle-->Business (B2B)-->Firmographics (Company Attributes)-->Company Industry-->Education",
        "description": "You are classified as part of this audience based on data licensed from a third party"
    },
    {
        "provider": "BlueKai",
        "name": "All-->3rd Party Data-->BlueKai-->Bluekai Data-->Oracle BlueKai-->In-Market-->Travel and Tourism-->Air Travel-->Destination Locations-->International-->Europe-->France",
        "description": "You are classified as part of this audience based on data licensed from a third party"
    },
    {
        "provider": "Cross Pixel",
        "name": "All-->3rd Party Data-->Cross Pixel-->SRT Keywords -->Cell Phones / Smartphones",
        "description": "You are classified as part of this audience based on data licensed from a third party"
    },
    {
        "name": "Music_Genre_Classical_REACH",
        "description": "You are classified as part of this Oath audience based on your online activities"
    },
    {
        "provider": "BlueKai",
        "name": "All-->3rd Party Data-->BlueKai-->Audiences by Oracle-->Hobbies and Interests (Affinity)-->Internet and Online Activities",
        "description": "You are classified as part of this audience based on data licensed from a third party"
    },
    {
        "provider": "BlueKai",
        "name": "All-->3rd Party Data-->BlueKai-->Audiences by Oracle",
        "description": "You are classified as part of this audience based on data licensed from a third party"
    },
    {
        "provider": "BlueKai",
        "name": "All-->3rd Party Data-->BlueKai-->Audiences by Oracle-->Media and Entertainment-->Sports and Recreational Activities-->Interest (Affinity)-->Team Sports",
        "description": "You are classified as part of this audience based on data licensed from a third party"
    },
    {
        "provider": "BlueKai",
        "name": "All-->3rd Party Data-->BlueKai-->Audiences by Oracle-->Consumer Technology-->In-Market-->Tablets and e-Readers",
        "description": "You are classified as part of this audience based on data licensed from a third party"
    },
    {
        "provider": "BlueKai",
        "name": "All-->3rd Party Data-->BlueKai-->Bluekai Data-->Oracle BlueKai-->In-Market-->Travel and Tourism-->Air Travel-->Destination Locations-->International-->Asia-->Japan (incl. Tokyo)",
        "description": "You are classified as part of this audience based on data licensed from a third party"
    },
    {
        "name": "Delta - Cycling, Fitness, Sports Enthusiasts",
        "description": "You are classified as part of this Oath audience based on your online activities"
    },
    {
        "provider": "BlueKai",
        "name": "All-->3rd Party Data-->BlueKai-->Bluekai Data-->Oracle BlueKai-->Television-->Viewership-->Shows-->Bravo",
        "description": "You are classified as part of this audience based on data licensed from a third party"
    },
    {
        "provider": "BlueKai",
        "name": "All-->3rd Party Data-->BlueKai-->Audiences by Oracle-->Media and Entertainment-->Television (TV)-->Interest",
        "description": "You are classified as part of this audience based on data licensed from a third party"
    },
    {
        "provider": "BlueKai",
        "name": "All-->3rd Party Data-->BlueKai-->Bluekai Data-->Oracle BlueKai-->Interest",
        "description": "You are classified as part of this audience based on data licensed from a third party"
    },
    {
        "provider": "BlueKai",
        "name": "All-->3rd Party Data-->BlueKai-->Audiences by Oracle-->Consumer Technology-->Interest (Affinity)-->Brand Affinity",
        "description": "You are classified as part of this audience based on data licensed from a third party"
    },
    {
        "provider": "BlueKai",
        "name": "All-->3rd Party Data-->BlueKai-->Audiences by Oracle-->Business (B2B)-->Firmographics (Company Attributes)-->Company Industry-->Hospitality and Food Service",
        "description": "You are classified as part of this audience based on data licensed from a third party"
    },
    {
        "provider": "Cross Pixel",
        "name": "All-->3rd Party Data-->Cross Pixel-->SRT Keywords -->Cell Phones / Smartphones -->All Smartphones",
        "description": "You are classified as part of this audience based on data licensed from a third party"
    },
    {
        "provider": "BlueKai",
        "name": "All-->3rd Party Data-->BlueKai-->Bluekai Data-->Oracle BlueKai-->Demographics-->Education",
        "description": "You are classified as part of this audience based on data licensed from a third party"
    },
    {
        "provider": "Cross Pixel",
        "name": "All-->3rd Party Data-->Cross Pixel-->Shopping-->Cell Phones-->Iphone",
        "description": "You are classified as part of this audience based on data licensed from a third party"
    },
    {
        "provider": "BlueKai",
        "name": "All-->3rd Party Data-->BlueKai-->Audiences by Oracle-->Retail-->In-Market",
        "description": "You are classified as part of this audience based on data licensed from a third party"
    },
    {
        "advertiser": "Blue Kai",
        "description": "You are classified as part of this custom audience because you are a current or prospective customer an advertiser"
    },
    {
        "provider": "BlueKai",
        "name": "All-->3rd Party Data-->BlueKai-->Audiences by Oracle-->Media and Entertainment-->Television (TV)-->Interest-->Networks-->ESPN",
        "description": "You are classified as part of this audience based on data licensed from a third party"
    },
    {
        "provider": "BlueKai",
        "name": "All-->3rd Party Data-->BlueKai-->Audiences by Oracle-->Business (B2B)-->Employee Attributes-->Professional Interest-->Legal",
        "description": "You are classified as part of this audience based on data licensed from a third party"
    },
    {
        "provider": "Cross Pixel",
        "name": "All-->3rd Party Data-->Cross Pixel-->Audience Profiles-->Psychographics-->Millennials",
        "description": "You are classified as part of this audience based on data licensed from a third party"
    },
    {
        "provider": "BlueKai",
        "name": "All-->3rd Party Data-->BlueKai-->Audiences by Oracle-->Travel and Tourism-->Interest (Affinity)-->Destinations-->Asia",
        "description": "You are classified as part of this audience based on data licensed from a third party"
    },
    {
        "provider": "BlueKai",
        "name": "All-->3rd Party Data-->BlueKai-->Branded Data-->Comscore-->Digital-->Demos (US)-->Age & Gender-->Females: 18-44",
        "description": "You are classified as part of this audience based on data licensed from a third party"
    },
    {
        "provider": "Cross Pixel",
        "name": "All-->3rd Party Data-->Cross Pixel-->Audience Profiles-->Technology-->iPhone/iPad Users",
        "description": "You are classified as part of this audience based on data licensed from a third party"
    },
    {
        "advertiser": "Sleight Advertising",
        "description": "You are classified as part of this audience because you exhibit behaviors similar to other customers of an advertiser"
    },
    {
        "provider": "BlueKai",
        "name": "All-->3rd Party Data-->BlueKai-->Branded Data-->Comscore-->Digital-->Demos (US)-->Age & Gender-->Persons: 18+",
        "description": "You are classified as part of this audience based on data licensed from a third party"
    },
    {
        "provider": "BlueKai",
        "name": "All-->3rd Party Data-->BlueKai-->Bluekai Data-->Oracle BlueKai-->Interest-->Travel and Tourism-->Destination Locations-->International",
        "description": "You are classified as part of this audience based on data licensed from a third party"
    },
    {
        "provider": "BlueKai",
        "name": "All-->3rd Party Data-->BlueKai-->Audiences by Oracle-->Travel and Tourism-->Interest (Affinity)-->Destinations-->North America",
        "description": "You are classified as part of this audience based on data licensed from a third party"
    },
    {
        "name": "Beauty Enthusiasts_BT_5.17",
        "description": "You are classified as part of this Oath audience based on your online activities"
    },
    {
        "name": "Boredom Therapy - iOS & Internet Explorer",
        "description": "You are classified as part of this Oath audience based on your online activities"
    },
    {
        "provider": "BlueKai",
        "name": "All-->3rd Party Data-->BlueKai-->Audiences by Oracle-->Hobbies and Interests (Affinity)-->Outdoor Activities",
        "description": "You are classified as part of this audience based on data licensed from a third party"
    },
    {
        "provider": "BlueKai",
        "name": "All-->3rd Party Data-->BlueKai-->Bluekai Data-->Device Data-->Browser-->Safari",
        "description": "You are classified as part of this audience based on data licensed from a third party"
    },
    {
        "provider": "Cross Pixel",
        "name": "All-->3rd Party Data-->Cross Pixel-->Audience Profiles-->Television Viewers-->MTV viewers",
        "description": "You are classified as part of this audience based on data licensed from a third party"
    },
    {
        "provider": "BlueKai",
        "name": "All-->3rd Party Data-->BlueKai-->Audiences by Oracle-->Consumer Technology-->Interest (Affinity)-->Mobile Phones (Cell Phones)-->iOS (iPhone)",
        "description": "You are classified as part of this audience based on data licensed from a third party"
    },
    {
        "provider": "BlueKai",
        "name": "All-->3rd Party Data-->BlueKai-->Branded Data-->Comscore-->Digital-->Demos (US)-->Age & Gender-->Persons: 35-54",
        "description": "You are classified as part of this audience based on data licensed from a third party"
    },
    {
        "provider": "BlueKai",
        "name": "All-->3rd Party Data-->BlueKai-->Audiences by Oracle-->Consumer Technology-->Interest (Affinity)-->Computers",
        "description": "You are classified as part of this audience based on data licensed from a third party"
    },
    {
        "provider": "BlueKai",
        "name": "All-->3rd Party Data-->BlueKai-->Bluekai Data-->Oracle BlueKai-->Interest-->Lifestyles-->Gift Giving",
        "description": "You are classified as part of this audience based on data licensed from a third party"
    },
    {
        "provider": "BlueKai",
        "name": "All-->3rd Party Data-->BlueKai-->Audiences by Oracle-->Business (B2B)-->Firmographics (Company Attributes)-->Company Industry-->Arts, Entertainment and Recreation",
        "description": "You are classified as part of this audience based on data licensed from a third party"
    },
    {
        "provider": "BlueKai",
        "name": "All-->3rd Party Data-->BlueKai-->Branded Data-->Comscore-->Digital-->Demos (US)-->Age & Gender-->Females: 25-44",
        "description": "You are classified as part of this audience based on data licensed from a third party"
    },
    {
        "provider": "BlueKai",
        "name": "All-->3rd Party Data-->BlueKai-->Audiences by Oracle-->Demographics",
        "description": "You are classified as part of this audience based on data licensed from a third party"
    },
    {
        "name": "Int\\u00E9r\\u00EAt social",
        "description": "You are classified as part of this Oath audience based on your online activities"
    },
    {
        "provider": "Cross Pixel",
        "name": "All-->3rd Party Data-->Cross Pixel-->Audience Profiles-->Television Viewers",
        "description": "You are classified as part of this audience based on data licensed from a third party"
    },
    {
        "name": "American Hydrotech Occupation",
        "description": "You are classified as part of this Oath audience based on your online activities"
    },
    {
        "provider": "BlueKai",
        "name": "All-->3rd Party Data-->BlueKai-->Bluekai Data-->Device Data-->Operating System-->iOS",
        "description": "You are classified as part of this audience based on data licensed from a third party"
    },
    {
        "name": "B2B Enterprise",
        "description": "You are classified as part of this Oath audience based on your online activities"
    },
    {
        "provider": "BlueKai",
        "name": "All-->3rd Party Data-->BlueKai-->Audiences by Oracle-->Consumer Technology-->Deviceographics (Device Ownership)-->Mobile, Smartphones and Tablets-->iOS (iPhone, iPad)",
        "description": "You are classified as part of this audience based on data licensed from a third party"
    },
    {
        "provider": "BlueKai",
        "name": "All-->3rd Party Data-->BlueKai-->Audiences by Oracle-->Media and Entertainment-->Gaming-->Interest (Affinity)",
        "description": "You are classified as part of this audience based on data licensed from a third party"
    },
    {
        "provider": "BlueKai",
        "name": "All-->3rd Party Data-->BlueKai-->Bluekai Data-->Oracle DLX (Datalogix)-->DLX Demographics-->Age-->Ages 35-39",
        "description": "You are classified as part of this audience based on data licensed from a third party"
    },
    {
        "provider": "BlueKai",
        "name": "All-->3rd Party Data-->BlueKai-->Branded Data-->Comscore-->Digital-->Demos (US)",
        "description": "You are classified as part of this audience based on data licensed from a third party"
    },
    {
        "provider": "BlueKai",
        "name": "All-->3rd Party Data-->BlueKai-->Bluekai Data-->Oracle BlueKai-->Interest-->Food and Drink",
        "description": "You are classified as part of this audience based on data licensed from a third party"
    },
    {
        "provider": "BlueKai",
        "name": "All-->3rd Party Data-->BlueKai-->Bluekai Data-->Oracle BlueKai-->Interest-->Travel and Tourism",
        "description": "You are classified as part of this audience based on data licensed from a third party"
    },
    {
        "advertiser": "Traeger Pellet Grills, LLC",
        "description": "You are classified as part of this audience because you exhibit behaviors similar to other customers of an advertiser"
    },
    {
        "provider": "BlueKai",
        "name": "All-->3rd Party Data-->BlueKai-->Branded Data-->Comscore-->Digital-->Demos (US)-->Age & Gender-->Persons: 35+",
        "description": "You are classified as part of this audience based on data licensed from a third party"
    },
    {
        "provider": "BlueKai",
        "name": "All-->3rd Party Data-->BlueKai-->Audiences by Oracle-->Real Estate and Home Property Services-->Real Estate Attributes-->Property Type-->Single Family",
        "description": "You are classified as part of this audience based on data licensed from a third party"
    },
    {
        "provider": "BlueKai",
        "name": "All-->3rd Party Data-->BlueKai-->Bluekai Data-->Oracle BlueKai-->Television-->Viewership-->Shows-->ESPN",
        "description": "You are classified as part of this audience based on data licensed from a third party"
    },
    {
        "provider": "BlueKai",
        "name": "All-->3rd Party Data-->BlueKai-->Audiences by Oracle-->Consumer Technology-->Deviceographics (Device Ownership)-->Mobile, Smartphones and Tablets",
        "description": "You are classified as part of this audience based on data licensed from a third party"
    },
    {
        "provider": "BlueKai",
        "name": "All-->3rd Party Data-->BlueKai-->Audiences by Oracle-->Media and Entertainment-->Music",
        "description": "You are classified as part of this audience based on data licensed from a third party"
    },
    {
        "name": "Avanos Coolief - ABM Anesthesiologists",
        "description": "You are classified as part of this Oath audience based on your online activities"
    },
    {
        "name": "Beauty & Fashion_BT",
        "description": "You are classified as part of this Oath audience based on your online activities"
    },
    {
        "provider": "Cross Pixel",
        "name": "All-->3rd Party Data-->Cross Pixel-->Shopping-->Computers & Software-->Ipad",
        "description": "You are classified as part of this audience based on data licensed from a third party"
    },
    {
        "provider": "BlueKai",
        "name": "All-->3rd Party Data-->BlueKai-->Audiences by Oracle-->Consumer Technology-->In-Market-->Mobile Phones (Cell Phones)-->Mobile Phone Type-->Smartphones",
        "description": "You are classified as part of this audience based on data licensed from a third party"
    },
    {
        "provider": "BlueKai",
        "name": "All-->3rd Party Data-->BlueKai-->Audiences by Oracle-->Hobbies and Interests (Affinity)-->Beauty and Style",
        "description": "You are classified as part of this audience based on data licensed from a third party"
    },
    {
        "provider": "BlueKai",
        "name": "All-->3rd Party Data-->BlueKai-->Bluekai Data-->Oracle BlueKai-->In-Market-->Travel and Tourism-->Air Travel-->Destination Locations-->International-->Europe-->Germany",
        "description": "You are classified as part of this audience based on data licensed from a third party"
    },
    {
        "provider": "Cross Pixel",
        "name": "All-->3rd Party Data-->Cross Pixel-->Audience Profiles-->Psychographics",
        "description": "You are classified as part of this audience based on data licensed from a third party"
    },
    {
        "name": "BR_Showcase_Architects and Engineers",
        "description": "You are classified as part of this Oath audience based on your online activities"
    },
    {
        "provider": "BlueKai",
        "name": "All-->3rd Party Data-->BlueKai-->Audiences by Oracle-->Business (B2B)-->Employee Attributes-->Occupations and Job Functions-->Healthcare-->Doctors",
        "description": "You are classified as part of this audience based on data licensed from a third party"
    },
    {
        "provider": "BlueKai",
        "name": "All-->3rd Party Data-->BlueKai-->Bluekai Data-->Device Data-->Browser Language-->English",
        "description": "You are classified as part of this audience based on data licensed from a third party"
    },
    {
        "provider": "BlueKai",
        "name": "All-->3rd Party Data-->BlueKai-->Audiences by Oracle-->Hobbies and Interests (Affinity)-->Hobbies-->Photography",
        "description": "You are classified as part of this audience based on data licensed from a third party"
    },
    {
        "provider": "BlueKai",
        "name": "All-->3rd Party Data-->BlueKai-->Audiences by Oracle-->Demographics-->Generations-->Millennials",
        "description": "You are classified as part of this audience based on data licensed from a third party"
    },
    {
        "name": "Cortland Properties - General Movers BT",
        "description": "You are classified as part of this Oath audience based on your online activities"
    },
    {
        "name": "Training (DCC)",
        "description": "You are classified as part of this Oath audience based on your online activities"
    },
    {
        "provider": "BlueKai",
        "name": "All-->3rd Party Data-->BlueKai-->Audiences by Oracle-->Consumer Packaged Goods (CPG)",
        "description": "You are classified as part of this audience based on data licensed from a third party"
    },
    {
        "provider": "Cross Pixel",
        "name": "All-->3rd Party Data-->Cross Pixel-->Audience Profiles-->Television Viewers-->Bravo viewers",
        "description": "You are classified as part of this audience based on data licensed from a third party"
    },
    {
        "name": "Beginner/Amateur Photographers",
        "description": "You are classified as part of this Oath audience based on your online activities"
    },
    {
        "provider": "BlueKai",
        "name": "All-->3rd Party Data-->BlueKai-->Audiences by Oracle-->Travel and Tourism-->In-Market-->Destinations-->Oceania",
        "description": "You are classified as part of this audience based on data licensed from a third party"
    },
    {
        "provider": "BlueKai",
        "name": "All-->3rd Party Data-->BlueKai-->Bluekai Data-->Oracle BlueKai-->Interest-->Technology and Computers-->Gadgets and Tech Toys",
        "description": "You are classified as part of this audience based on data licensed from a third party"
    },
    {
        "provider": "BlueKai",
        "name": "All-->3rd Party Data-->BlueKai-->Audiences by Oracle-->Financial Services-->Insurance-->Interest (Affinity)",
        "description": "You are classified as part of this audience based on data licensed from a third party"
    },
    {
        "provider": "BlueKai",
        "name": "All-->3rd Party Data-->BlueKai-->Audiences by Oracle-->Travel and Tourism-->Interest (Affinity)-->Destinations-->Europe",
        "description": "You are classified as part of this audience based on data licensed from a third party"
    },
    {
        "provider": "BlueKai",
        "name": "All-->3rd Party Data-->BlueKai-->Audiences by Oracle-->Travel and Tourism-->In-Market-->Destinations-->Europe-->The British Isles-->United Kingdom (UK)",
        "description": "You are classified as part of this audience based on data licensed from a third party"
    },
    {
        "name": "Apple_iOS USERS",
        "description": "You are classified as part of this Oath audience based on your online activities"
    },
    {
        "name": "Vimacom_PublicEmployees",
        "description": "You are classified as part of this Oath audience based on your online activities"
    },
    {
        "name": "Travel_International Trips_REACH",
        "description": "You are classified as part of this Oath audience based on your online activities"
    },
    {
        "provider": "BlueKai",
        "name": "All-->3rd Party Data-->BlueKai-->Audiences by Oracle-->Business (B2B)-->Firmographics (Company Attributes)-->Company Industry-->Education-->Colleges and Universities",
        "description": "You are classified as part of this audience based on data licensed from a third party"
    },
    {
        "provider": "BlueKai",
        "name": "All-->3rd Party Data-->BlueKai-->Bluekai Data-->Device Data-->Type-->Mobile",
        "description": "You are classified as part of this audience based on data licensed from a third party"
    },
    {
        "provider": "BlueKai",
        "name": "All-->3rd Party Data-->BlueKai-->Audiences by Oracle-->Media and Entertainment-->Gaming-->Interest (Affinity)-->Video Games",
        "description": "You are classified as part of this audience based on data licensed from a third party"
    },
    {
        "provider": "BlueKai",
        "name": "All-->3rd Party Data-->BlueKai-->Audiences by Oracle-->Media and Entertainment-->Television (TV)",
        "description": "You are classified as part of this audience based on data licensed from a third party"
    },
    {
        "name": "CO_Budweiser_Cruz Roja_True King_Fashion Activists",
        "description": "You are classified as part of this Oath audience based on your online activities"
    },
    {
        "name": "MSFT - PMD - PowerApps - CA Citizen Developers - ODC - 202006",
        "description": "You are classified as part of this Oath audience based on your online activities"
    },
    {
        "advertiser": "Bask Bank",
        "description": "You are classified as part of this audience based on incoming Mail"
    },
    {
        "name": "CO_Zalva_1.5_Social Activists",
        "description": "You are classified as part of this Oath audience based on your online activities"
    },
    {
        "name": "DIY Behavioral Comp",
        "description": "You are classified as part of this Oath audience based on your online activities"
    },
    {
        "provider": "BlueKai",
        "name": "All-->3rd Party Data-->BlueKai-->Branded Data-->Comscore-->Digital-->Demos (US)-->Age & Gender-->Persons: 25-54",
        "description": "You are classified as part of this audience based on data licensed from a third party"
    },
    {
        "advertiser": "DoorDash - Dasher",
        "description": "You are classified as part of this conversion rule audience based on your online activities and because you are of interest to an advertiser"
    },
    {
        "provider": "BlueKai",
        "name": "All-->3rd Party Data-->BlueKai-->Audiences by Oracle-->Consumer Packaged Goods (CPG)-->Interest (Affinity)-->Product Categories-->Pet Care",
        "description": "You are classified as part of this audience based on data licensed from a third party"
    },
    {
        "provider": "BlueKai",
        "name": "All-->3rd Party Data-->BlueKai-->Audiences by Oracle-->Hobbies and Interests (Affinity)",
        "description": "You are classified as part of this audience based on data licensed from a third party"
    },
    {
        "name": "Family Easy Meals Interest Composite",
        "description": "You are classified as part of this Oath audience based on your online activities"
    },
    {
        "provider": "BlueKai",
        "name": "All-->3rd Party Data-->BlueKai-->Audiences by Oracle-->Business (B2B)-->Employee Attributes-->Occupations and Job Functions-->Healthcare-->Nurses",
        "description": "You are classified as part of this audience based on data licensed from a third party"
    },
    {
        "name": "NB_Plarium App Users_Custom Audience",
        "description": "You are classified as part of this Oath audience based on your online activities"
    },
    {
        "provider": "BlueKai",
        "name": "All-->3rd Party Data-->BlueKai-->Bluekai Data-->Oracle BlueKai-->Interest-->Sports and Recreation-->Sports",
        "description": "You are classified as part of this audience based on data licensed from a third party"
    },
    {
        "provider": "BlueKai",
        "name": "All-->3rd Party Data-->BlueKai-->Audiences by Oracle-->Media and Entertainment-->Sports and Recreational Activities-->Interest (Affinity)-->Individual Sports-->Cycling",
        "description": "You are classified as part of this audience based on data licensed from a third party"
    },
    {
        "provider": "BlueKai",
        "name": "All-->3rd Party Data-->BlueKai-->Audiences by Oracle-->Hobbies and Interests (Affinity)-->Science and Humanities",
        "description": "You are classified as part of this audience based on data licensed from a third party"
    },
    {
        "provider": "Cross Pixel",
        "name": "All-->3rd Party Data-->Cross Pixel-->Shopping",
        "description": "You are classified as part of this audience based on data licensed from a third party"
    },
    {
        "provider": "BlueKai",
        "name": "All-->3rd Party Data-->BlueKai-->Bluekai Data-->Oracle BlueKai-->In-Market-->Travel and Tourism-->Air Travel",
        "description": "You are classified as part of this audience based on data licensed from a third party"
    },
    {
        "provider": "BlueKai",
        "name": "All-->3rd Party Data-->BlueKai-->Audiences by Oracle-->Travel and Tourism-->Travelers-->Personas-->Business Travelers",
        "description": "You are classified as part of this audience based on data licensed from a third party"
    },
    {
        "provider": "BlueKai",
        "name": "All-->3rd Party Data-->BlueKai-->Branded Data-->Comscore-->Digital-->Demos (US)-->Age & Gender-->Females: 25-49",
        "description": "You are classified as part of this audience based on data licensed from a third party"
    },
    {
        "provider": "BlueKai",
        "name": "All-->3rd Party Data-->BlueKai-->Bluekai Data-->Oracle BlueKai-->In-Market-->Retail-->Cell Phones and Plans-->Devices",
        "description": "You are classified as part of this audience based on data licensed from a third party"
    },
    {
        "provider": "BlueKai",
        "name": "All-->3rd Party Data-->BlueKai-->Audiences by Oracle-->Consumer Technology-->Interest (Affinity)",
        "description": "You are classified as part of this audience based on data licensed from a third party"
    },
    {
        "provider": "Cross Pixel",
        "name": "All-->3rd Party Data-->Cross Pixel-->Audience Profiles-->Television Viewers-->Bio viewers",
        "description": "You are classified as part of this audience based on data licensed from a third party"
    },
    {
        "provider": "BlueKai",
        "name": "All-->3rd Party Data-->BlueKai-->Audiences by Oracle-->Hobbies and Interests (Affinity)-->Home and Garden",
        "description": "You are classified as part of this audience based on data licensed from a third party"
    },
    {
        "provider": "BlueKai",
        "name": "All-->3rd Party Data-->BlueKai-->Branded Data-->Comscore-->Digital-->Demos (US)-->Age & Gender-->Females: 35+",
        "description": "You are classified as part of this audience based on data licensed from a third party"
    },
    {
        "provider": "BlueKai",
        "name": "All-->3rd Party Data-->BlueKai-->Audiences by Oracle-->Business (B2B)-->Employee Attributes-->Occupations and Job Functions-->Marketing",
        "description": "You are classified as part of this audience based on data licensed from a third party"
    },
    {
        "provider": "BlueKai",
        "name": "All-->3rd Party Data-->BlueKai-->Audiences by Oracle-->Travel and Tourism-->Interest (Affinity)-->Destinations-->Europe-->France",
        "description": "You are classified as part of this audience based on data licensed from a third party"
    },
    {
        "provider": "BlueKai",
        "name": "All-->3rd Party Data-->BlueKai-->Bluekai Data-->Oracle BlueKai-->Demographics-->Home Attributes-->Renters",
        "description": "You are classified as part of this audience based on data licensed from a third party"
    },
    {
        "provider": "BlueKai",
        "name": "All-->3rd Party Data-->BlueKai-->Audiences by Oracle-->Travel and Tourism-->In-Market-->Destinations-->Europe-->The British Isles",
        "description": "You are classified as part of this audience based on data licensed from a third party"
    },
    {
        "name": "Lifestyle - Outdoors Road Trips Camping Hiking Enthusiasts",
        "description": "You are classified as part of this Oath audience based on your online activities"
    },
    {
        "provider": "BlueKai",
        "name": "All-->3rd Party Data-->BlueKai-->Bluekai Data-->Oracle BlueKai-->Interest-->Technology and Computers",
        "description": "You are classified as part of this audience based on data licensed from a third party"
    },
    {
        "provider": "BlueKai",
        "name": "All-->3rd Party Data-->BlueKai-->Audiences by Oracle-->Media and Entertainment-->Gaming-->Interest (Affinity)-->Platforms and Consoles",
        "description": "You are classified as part of this audience based on data licensed from a third party"
    },
    {
        "provider": "BlueKai",
        "name": "All-->3rd Party Data-->BlueKai-->Audiences by Oracle-->Hobbies and Interests (Affinity)-->Shopping-->Gift Giving",
        "description": "You are classified as part of this audience based on data licensed from a third party"
    },
    {
        "provider": "BlueKai",
        "name": "All-->3rd Party Data-->BlueKai-->Audiences by Oracle-->Media and Entertainment-->Sports and Recreational Activities-->Interest (Affinity)-->Individual Sports-->Golf",
        "description": "You are classified as part of this audience based on data licensed from a third party"
    },
    {
        "provider": "Cross Pixel",
        "name": "All-->3rd Party Data-->Cross Pixel-->Audience Profiles",
        "description": "You are classified as part of this audience based on data licensed from a third party"
    },
    {
        "name": "Avanos Coolief - Pain Management ABM",
        "description": "You are classified as part of this Oath audience based on your online activities"
    },
    {
        "provider": "BlueKai",
        "name": "All-->3rd Party Data-->BlueKai-->Audiences by Oracle-->Hobbies and Interests (Affinity)-->Science and Humanities-->Life Sciences",
        "description": "You are classified as part of this audience based on data licensed from a third party"
    },
    {
        "provider": "BlueKai",
        "name": "All-->3rd Party Data-->BlueKai-->Audiences by Oracle-->Travel and Tourism-->In-Market-->Destinations-->Europe-->Central Europe",
        "description": "You are classified as part of this audience based on data licensed from a third party"
    },
    {
        "provider": "BlueKai",
        "name": "All-->3rd Party Data-->BlueKai-->Branded Data-->Comscore",
        "description": "You are classified as part of this audience based on data licensed from a third party"
    },
    {
        "advertiser": "DoorDash - Dasher",
        "description": "You are classified as part of this audience because you exhibit behaviors similar to other customers of an advertiser"
    },
    {
        "provider": "BlueKai",
        "name": "All-->3rd Party Data-->BlueKai-->Audiences by Oracle-->Retail-->In-Market-->Home and Garden",
        "description": "You are classified as part of this audience based on data licensed from a third party"
    },
    {
        "provider": "BlueKai",
        "name": "All-->3rd Party Data-->BlueKai-->Branded Data-->Comscore-->Digital-->Demos (US)-->Age & Gender-->Females: 18+",
        "description": "You are classified as part of this audience based on data licensed from a third party"
    },
    {
        "name": "Composite - RDI 2020",
        "description": "You are classified as part of this Oath audience based on your online activities"
    },
    {
        "provider": "BlueKai",
        "name": "All-->3rd Party Data-->BlueKai-->Audiences by Oracle-->Business (B2B)-->Employee Attributes-->Occupations and Job Functions-->Healthcare",
        "description": "You are classified as part of this audience based on data licensed from a third party"
    },
    {
        "provider": "BlueKai",
        "name": "All-->3rd Party Data-->BlueKai-->Bluekai Data-->Oracle BlueKai-->In-Market-->Travel and Tourism-->Air Travel-->Destination Locations-->International-->North America",
        "description": "You are classified as part of this audience based on data licensed from a third party"
    },
    {
        "provider": "Cross Pixel",
        "name": "All-->3rd Party Data-->Cross Pixel-->Shopping-->Computers & Software",
        "description": "You are classified as part of this audience based on data licensed from a third party"
    },
    {
        "provider": "BlueKai",
        "name": "All-->3rd Party Data-->BlueKai-->Audiences by Oracle-->Consumer Technology-->Interest (Affinity)-->Brand Affinity-->Apple",
        "description": "You are classified as part of this audience based on data licensed from a third party"
    },
    {
        "provider": "BlueKai",
        "name": "All-->3rd Party Data-->BlueKai-->Audiences by Oracle-->Travel and Tourism-->Interest (Affinity)-->Destinations-->Asia-->Japan (incl. Tokyo)",
        "description": "You are classified as part of this audience based on data licensed from a third party"
    },
    {
        "provider": "BlueKai",
        "name": "All-->3rd Party Data-->BlueKai-->Branded Data-->Comscore-->Digital-->Demos (US)-->Age & Gender-->Persons: 18-54",
        "description": "You are classified as part of this audience based on data licensed from a third party"
    },
    {
        "provider": "BlueKai",
        "name": "All-->3rd Party Data-->BlueKai-->Audiences by Oracle-->Media and Entertainment-->News and Current Events",
        "description": "You are classified as part of this audience based on data licensed from a third party"
    },
    {
        "provider": "BlueKai",
        "name": "All-->3rd Party Data-->BlueKai-->Audiences by Oracle-->Consumer Technology-->Interest (Affinity)-->Cameras",
        "description": "You are classified as part of this audience based on data licensed from a third party"
    },
    {
        "provider": "BlueKai",
        "name": "All-->3rd Party Data-->BlueKai-->Branded Data-->Comscore-->Digital-->Demos (US)-->Age & Gender-->Females: 18-49",
        "description": "You are classified as part of this audience based on data licensed from a third party"
    },
    {
        "advertiser": "SodaStream",
        "description": "You are classified as part of this audience based on incoming Mail"
    },
    {
        "name": "In Demo DIY'er LL 1",
        "description": "You are classified as part of this Oath audience based on your online activities"
    },
    {
        "provider": "BlueKai",
        "name": "All-->3rd Party Data-->BlueKai-->Audiences by Oracle-->Hobbies and Interests (Affinity)-->Science and Humanities-->Physical Science",
        "description": "You are classified as part of this audience based on data licensed from a third party"
    },
    {
        "provider": "BlueKai",
        "name": "All-->3rd Party Data-->BlueKai-->Audiences by Oracle-->Media and Entertainment-->Gaming-->Interest (Affinity)-->Platforms and Consoles-->Gaming Consoles",
        "description": "You are classified as part of this audience based on data licensed from a third party"
    },
    {
        "provider": "BlueKai",
        "name": "All-->3rd Party Data-->BlueKai-->Audiences by Oracle-->Media and Entertainment-->Sports and Recreational Activities-->Interest (Affinity)",
        "description": "You are classified as part of this audience based on data licensed from a third party"
    },
    {
        "provider": "BlueKai",
        "name": "All-->3rd Party Data-->BlueKai-->Audiences by Oracle-->Business (B2B)-->Firmographics (Company Attributes)-->Company Industry-->Manufacturing",
        "description": "You are classified as part of this audience based on data licensed from a third party"
    },
    {
        "provider": "BlueKai",
        "name": "All-->3rd Party Data-->BlueKai-->Audiences by Oracle-->Real Estate and Home Property Services",
        "description": "You are classified as part of this audience based on data licensed from a third party"
    },
    {
        "provider": "BlueKai",
        "name": "All-->3rd Party Data-->BlueKai-->Audiences by Oracle-->Business (B2B)-->Employee Attributes-->Professional Interest-->IT and Technology",
        "description": "You are classified as part of this audience based on data licensed from a third party"
    },
    {
        "name": "Timberland - Outdoors Enthusiasts, Road Trip, Camping, Backpacking, Boots",
        "description": "You are classified as part of this Oath audience based on your online activities"
    },
    {
        "name": "3rdPartyData_charity",
        "description": "You are classified as part of this Oath audience based on your online activities"
    },
    {
        "name": "All-->Interest-->Business and Industry-->Personal finance-->Insurance-->Medical and dental",
        "description": "You are classified as part of an Oath audience based on Oath's prediction of your interests"
    },
    {
        "provider": "BlueKai",
        "name": "All-->3rd Party Data-->BlueKai-->Audiences by Oracle-->Consumer Technology-->Interest (Affinity)-->Tablets and e-Readers",
        "description": "You are classified as part of this audience based on data licensed from a third party"
    },
    {
        "name": "BR_Showcase_Education",
        "description": "You are classified as part of this Oath audience based on your online activities"
    },
    {
        "provider": "BlueKai",
        "name": "All-->3rd Party Data-->BlueKai-->Audiences by Oracle-->Media and Entertainment-->Sports and Recreational Activities-->Interest (Affinity)-->Individual Sports",
        "description": "You are classified as part of this audience based on data licensed from a third party"
    },
    {
        "provider": "BlueKai",
        "name": "All-->3rd Party Data-->BlueKai-->Audiences by Oracle-->Hobbies and Interests (Affinity)-->Shopping",
        "description": "You are classified as part of this audience based on data licensed from a third party"
    },
    {
        "provider": "BlueKai",
        "name": "All-->3rd Party Data-->BlueKai-->Audiences by Oracle-->Retail",
        "description": "You are classified as part of this audience based on data licensed from a third party"
    },
    {
        "provider": "BlueKai",
        "name": "All-->3rd Party Data-->BlueKai-->Bluekai Data-->Oracle BlueKai-->Television-->Viewership-->Shows-->MTV",
        "description": "You are classified as part of this audience based on data licensed from a third party"
    },
    {
        "provider": "BlueKai",
        "name": "All-->3rd Party Data-->BlueKai-->Bluekai Data-->Oracle BlueKai-->Demographics",
        "description": "You are classified as part of this audience based on data licensed from a third party"
    },
    {
        "provider": "BlueKai",
        "name": "All-->3rd Party Data-->BlueKai-->Audiences by Oracle-->Retail-->In-Market-->Fashion and Apparel",
        "description": "You are classified as part of this audience based on data licensed from a third party"
    },
    {
        "provider": "BlueKai",
        "name": "All-->3rd Party Data-->BlueKai-->Bluekai Data-->Oracle BlueKai-->Interest-->Sports and Recreation",
        "description": "You are classified as part of this audience based on data licensed from a third party"
    },
    {
        "provider": "BlueKai",
        "name": "All-->3rd Party Data-->BlueKai-->Audiences by Oracle-->Consumer Technology-->In-Market",
        "description": "You are classified as part of this audience based on data licensed from a third party"
    },
    {
        "name": "People interested in traveling to Europe PKB",
        "description": "You are classified as part of this Oath audience based on your online activities"
    },
    {
        "provider": "BlueKai",
        "name": "All-->3rd Party Data-->BlueKai-->Bluekai Data-->Oracle BlueKai-->In-Market-->Travel and Tourism-->Air Travel-->Destination Locations-->International-->Oceania",
        "description": "You are classified as part of this audience based on data licensed from a third party"
    },
    {
        "name": "BR_Showcase_Music Festival",
        "description": "You are classified as part of this Oath audience based on your online activities"
    },
    {
        "provider": "BlueKai",
        "name": "All-->3rd Party Data-->BlueKai-->Audiences by Oracle-->Travel and Tourism-->In-Market-->Destinations-->Europe-->Central Europe-->Germany",
        "description": "You are classified as part of this audience based on data licensed from a third party"
    },
    {
        "provider": "BlueKai",
        "name": "All-->3rd Party Data-->BlueKai-->Bluekai Data-->Oracle BlueKai-->In-Market-->Travel and Tourism-->Air Travel-->Destination Locations-->International-->Europe-->United Kingdom",
        "description": "You are classified as part of this audience based on data licensed from a third party"
    },
    {
        "provider": "BlueKai",
        "name": "All-->3rd Party Data-->BlueKai-->Audiences by Oracle-->Retail-->In-Market-->Home and Garden-->Outdoors-->Gardening and Landscaping",
        "description": "You are classified as part of this audience based on data licensed from a third party"
    },
    {
        "name": "DCC Stakeholder BTs Educators & Campus Visitors",
        "description": "You are classified as part of this Oath audience based on your online activities"
    },
    {
        "provider": "BlueKai",
        "name": "All-->3rd Party Data-->BlueKai-->Audiences by Oracle-->Hobbies and Interests (Affinity)-->Hobbies",
        "description": "You are classified as part of this audience based on data licensed from a third party"
    },
    {
        "name": "TEM Behavioral - Health -11.19",
        "description": "You are classified as part of this Oath audience based on your online activities"
    },
    {
        "provider": "Cross Pixel",
        "name": "All-->3rd Party Data-->Cross Pixel-->SRT Keywords",
        "description": "You are classified as part of this audience based on data licensed from a third party"
    },
    {
        "name": "unruly_openmind_bearbrand",
        "description": "You are classified as part of this Oath audience based on your online activities"
    },
    {
        "description": "We inferred products that you may be interested in based on your web browsing activities",
        "viewed_website": "https://www.traegergrills.com/pellet-grills/century-22-34"
    }
]}