
AT&T
PhoneNumber : 270.254.1714
Totals for billing period:|181 messages|3500 MBs
Count|Date|Time|Contact|Usage Type|Provider Name|Usage|Charges
1|07/30|10:08 PM|--|Web|--|521.49|0.00
2|07/30|09:08 PM|--|Web|--|347.83|0.00
3|07/30|08:08 PM|--|Web|--|178.12|0.00
4|07/30|07:21 PM|270.254.1115|TextMessaging|--|0.0|0.00
5|07/30|07:20 PM|270.254.1115|TextMessaging|--|0.0|0.00
6|07/30|07:19 PM|270.254.1115|TextMessaging|--|0.0|0.00
7|07/30|07:18 PM|270.254.1115|TextMessaging|--|0.0|0.00
8|07/30|07:08 PM|--|Web|--|114.98|0.00
9|07/30|06:11 PM|270.908.8408|TextMessaging|--|0.0|0.00
10|07/30|06:11 PM|270.908.8408|TextMessaging|--|0.0|0.00
11|07/30|06:11 PM|270.908.8408|TextMessaging|--|0.0|0.00
12|07/30|06:11 PM|270.908.8408|TextMessaging|--|0.0|0.00
13|07/30|06:11 PM|270.908.8408|TextMessaging|--|0.0|0.00
14|07/30|06:11 PM|270.908.8408|TextMessaging|--|0.0|0.00
15|07/30|06:11 PM|270.210.0739|TextMessaging|--|0.0|0.00
16|07/30|06:11 PM|270.816.4568|TextMessaging|--|0.0|0.00
17|07/30|04:21 PM|--|Web|--|98.0|0.00
18|07/30|02:56 PM|617.470.5225|TextMessaging|--|0.0|0.00
19|07/30|01:27 PM|--|Web|--|86.0|0.00
20|07/30|01:26 PM|--|Web|--|36761.0|0.00
21|07/30|01:16 PM|270.816.4568|TextMessaging|--|0.0|0.00
22|07/30|01:13 PM|270.816.4568|TextMessaging|--|0.0|0.00
23|07/30|12:55 PM|270.816.4568|TextMessaging|--|0.0|0.00
24|07/30|12:54 PM|270.816.4568|TextMessaging|--|0.0|0.00
25|07/30|12:50 PM|270.816.4568|TextMessaging|--|0.0|0.00
26|07/30|12:43 PM|270.816.4568|TextMessaging|--|0.0|0.00
27|07/30|12:33 PM|270.816.4568|TextMessaging|--|0.0|0.00
28|07/30|12:26 PM|--|Web|--|20281.0|0.00
29|07/30|12:18 PM|270.816.4568|TextMessaging|--|0.0|0.00
30|07/30|12:10 PM|270.816.4568|TextMessaging|--|0.0|0.00
31|07/30|12:09 PM|270.816.4568|TextMessaging|--|0.0|0.00
32|07/30|12:08 PM|270.816.4568|TextMessaging|--|0.0|0.00
33|07/30|12:06 PM|270.816.4568|TextMessaging|--|0.0|0.00
34|07/30|11:57 AM|270.816.4568|TextMessaging|--|0.0|0.00
35|07/30|11:57 AM|270.816.4568|TextMessaging|--|0.0|0.00
36|07/30|11:56 AM|270.816.4568|TextMessaging|--|0.0|0.00
37|07/30|11:55 AM|270.816.4568|TextMessaging|--|0.0|0.00
38|07/30|11:51 AM|270.816.4568|TextMessaging|--|0.0|0.00
39|07/30|11:49 AM|270.816.4568|TextMessaging|--|0.0|0.00
40|07/30|11:27 AM|270.816.4568|TextMessaging|--|0.0|0.00
41|07/30|11:27 AM|270.816.4568|TextMessaging|--|0.0|0.00
42|07/30|11:26 AM|--|Web|--|10645.0|0.00
43|07/30|11:26 AM|270.816.4568|TextMessaging|--|0.0|0.00
44|07/30|11:25 AM|270.816.4568|TextMessaging|--|0.0|0.00
45|07/30|11:25 AM|270.816.4568|TextMessaging|--|0.0|0.00
46|07/30|11:10 AM|270.816.4568|TextMessaging|--|0.0|0.00
47|07/30|11:07 AM|270.816.4568|TextMessaging|--|0.0|0.00
48|07/30|11:05 AM|270.254.1115|TextMessaging|--|0.0|0.00
49|07/30|11:02 AM|270.254.1115|TextMessaging|--|0.0|0.00
50|07/30|11:01 AM|270.816.4568|TextMessaging|--|0.0|0.00
51|07/30|11:01 AM|270.254.1555|TextMessaging|--|0.0|0.00
52|07/30|11:01 AM|270.254.1555|TextMessaging|--|0.0|0.00
53|07/30|11:01 AM|270.254.1555|TextMessaging|--|0.0|0.00
54|07/30|11:00 AM|270.254.1555|TextMessaging|--|0.0|0.00
55|07/30|11:00 AM|270.254.1555|TextMessaging|--|0.0|0.00
56|07/30|11:00 AM|270.254.1555|TextMessaging|--|0.0|0.00
57|07/30|11:00 AM|270.254.1555|TextMessaging|--|0.0|0.00
58|07/30|10:51 AM|270.254.1555|TextMessaging|--|0.0|0.00
59|07/30|10:50 AM|270.816.4568|TextMessaging|--|0.0|0.00
60|07/30|10:47 AM|270.816.4568|TextMessaging|--|0.0|0.00
61|07/30|10:44 AM|270.816.4568|TextMessaging|--|0.0|0.00
62|07/30|10:39 AM|270.816.4568|TextMessaging|--|0.0|0.00
63|07/30|10:28 AM|270.816.4568|TextMessaging|--|0.0|0.00
64|07/30|10:26 AM|--|Web|--|25548.0|0.00
65|07/30|10:15 AM|786.453.8286|TextMessaging|--|0.0|0.00
66|07/30|09:45 AM|270.816.4568|TextMessaging|--|0.0|0.00
67|07/30|09:42 AM|270.816.4568|TextMessaging|--|0.0|0.00
68|07/30|09:42 AM|270.816.4568|TextMessaging|--|0.0|0.00
69|07/30|09:29 AM|270.816.4568|TextMessaging|--|0.0|0.00
70|07/30|09:29 AM|270.816.4568|TextMessaging|--|0.0|0.00
71|07/30|09:29 AM|270.816.4568|TextMessaging|--|0.0|0.00
72|07/30|09:29 AM|270.816.4568|TextMessaging|--|0.0|0.00
73|07/30|09:28 AM|270.254.1555|TextMessaging|--|0.0|0.00
74|07/30|09:26 AM|--|Web|--|17833.0|0.00
75|07/30|09:17 AM|270.816.4568|TextMessaging|--|0.0|0.00
76|07/30|09:11 AM|270.816.4568|TextMessaging|--|0.0|0.00
77|07/30|09:10 AM|270.816.4568|TextMessaging|--|0.0|0.00
78|07/30|09:09 AM|270.816.4568|TextMessaging|--|0.0|0.00
79|07/30|09:08 AM|270.816.4568|TextMessaging|--|0.0|0.00
80|07/30|09:07 AM|270.816.4568|TextMessaging|--|0.0|0.00
81|07/30|09:06 AM|270.816.4568|TextMessaging|--|0.0|0.00
82|07/30|09:03 AM|270.816.4568|TextMessaging|--|0.0|0.00
83|07/30|09:02 AM|270.816.4568|TextMessaging|--|0.0|0.00
84|07/30|09:02 AM|270.816.4568|TextMessaging|--|0.0|0.00
85|07/30|09:02 AM|270.816.4568|TextMessaging|--|0.0|0.00
86|07/30|08:59 AM|844.908.3182|TextMessaging|--|0.0|0.00
87|07/30|08:59 AM|270.816.4568|TextMessaging|--|0.0|0.00
88|07/30|08:45 AM|270.816.4568|TextMessaging|--|0.0|0.00
89|07/30|08:34 AM|270.816.4568|TextMessaging|--|0.0|0.00
90|07/30|08:26 AM|--|Web|--|18210.0|0.00
91|07/30|07:26 AM|--|Web|--|227.18|0.00
92|07/30|06:26 AM|--|Web|--|111.85|0.00
93|07/30|06:19 AM|837401|TextMessaging|--|0.0|0.00
94|07/30|05:26 AM|--|Web|--|129.83|0.00
95|07/30|04:49 AM|270.816.4568|TextMessaging|--|0.0|0.00
96|07/30|04:26 AM|--|Web|--|43380.0|0.00
97|07/30|03:56 AM|270.816.4568|TextMessaging|--|0.0|0.00
98|07/30|03:55 AM|270.816.4568|TextMessaging|--|0.0|0.00
99|07/30|03:55 AM|270.816.4568|TextMessaging|--|0.0|0.00
100|07/30|03:51 AM|270.816.4568|TextMessaging|--|0.0|0.00
101|07/30|03:50 AM|270.816.4568|TextMessaging|--|0.0|0.00
102|07/30|03:49 AM|270.816.4568|TextMessaging|--|0.0|0.00
103|07/30|03:49 AM|270.816.4568|TextMessaging|--|0.0|0.00
104|07/30|03:47 AM|270.816.4568|TextMessaging|--|0.0|0.00
105|07/30|03:36 AM|270.816.4568|TextMessaging|--|0.0|0.00
106|07/30|03:26 AM|--|Web|--|1160.0|0.00
107|07/30|02:26 AM|--|Web|--|121.91|0.00
108|07/30|01:26 AM|--|Web|--|492.0|0.00
109|07/30|12:26 AM|--|Web|--|10745.0|0.00
110|07/29|11:26 PM|--|Web|--|26628.0|0.00
111|07/29|10:55 PM|270.816.4568|TextMessaging|--|0.0|0.00
112|07/29|10:54 PM|270.816.4568|TextMessaging|--|0.0|0.00
113|07/29|10:29 PM|270.816.4568|TextMessaging|--|0.0|0.00
114|07/29|10:26 PM|--|Web|--|31338.0|0.00
115|07/29|10:26 PM|270.816.4568|TextMessaging|--|0.0|0.00
116|07/29|10:00 PM|270.816.4568|TextMessaging|--|0.0|0.00
117|07/29|09:27 PM|270.254.6156|TextMessaging|--|0.0|0.00
118|07/29|08:30 PM|--|Web|--|301.0|0.00
119|07/29|08:16 PM|--|Web|--|173.0|0.00
120|07/29|08:14 PM|--|Web|--|9220.0|0.00
121|07/29|07:43 PM|--|Web|--|1793.0|0.00
122|07/29|07:29 PM|270.816.4568|TextMessaging|--|0.0|0.00
123|07/29|07:27 PM|270.816.4568|TextMessaging|--|0.0|0.00
124|07/29|07:26 PM|270.816.4568|TextMessaging|--|0.0|0.00
125|07/29|07:26 PM|270.816.4568|TextMessaging|--|0.0|0.00
126|07/29|07:19 PM|270.816.4568|TextMessaging|--|0.0|0.00
127|07/29|07:18 PM|270.816.4568|TextMessaging|--|0.0|0.00
128|07/29|07:04 PM|270.816.4568|TextMessaging|--|0.0|0.00
129|07/29|07:04 PM|270.816.4568|TextMessaging|--|0.0|0.00
130|07/29|07:01 PM|270.816.4568|TextMessaging|--|0.0|0.00
131|07/29|06:56 PM|270.816.4568|TextMessaging|--|0.0|0.00
132|07/29|06:49 PM|270.816.4568|TextMessaging|--|0.0|0.00
133|07/29|06:44 PM|270.816.4568|TextMessaging|--|0.0|0.00
134|07/29|06:43 PM|--|Web|--|137.58|0.00
135|07/29|06:42 PM|270.816.4568|TextMessaging|--|0.0|0.00
136|07/29|06:41 PM|270.816.4568|TextMessaging|--|0.0|0.00
137|07/29|06:41 PM|270.816.4568|TextMessaging|--|0.0|0.00
138|07/29|06:28 PM|270.816.4568|TextMessaging|--|0.0|0.00
139|07/29|06:26 PM|270.816.4568|TextMessaging|--|0.0|0.00
140|07/29|06:23 PM|270.254.6156|TextMessaging|--|0.0|0.00
141|07/29|05:43 PM|--|Web|--|27641.0|0.00
142|07/29|04:57 PM|270.970.9397|TextMessaging|--|0.0|0.00
143|07/29|04:57 PM|270.970.9397|TextMessaging|--|0.0|0.00
144|07/29|04:56 PM|270.816.4568|TextMessaging|--|0.0|0.00
145|07/29|04:56 PM|270.970.9397|TextMessaging|--|0.0|0.00
146|07/29|04:43 PM|--|Web|--|1312.0|0.00
147|07/29|04:43 PM|270.254.6156|TextMessaging|--|0.0|0.00
148|07/29|04:42 PM|270.254.6156|TextMessaging|--|0.0|0.00
149|07/29|04:37 PM|270.816.4568|TextMessaging|--|0.0|0.00
150|07/29|04:30 PM|270.970.9397|TextMessaging|--|0.0|0.00
151|07/29|04:23 PM|270.970.9397|TextMessaging|--|0.0|0.00
152|07/29|04:18 PM|270.254.6156|TextMessaging|--|0.0|0.00
153|07/29|04:17 PM|270.254.6156|TextMessaging|--|0.0|0.00
154|07/29|03:44 PM|270.254.6156|TextMessaging|--|0.0|0.00
155|07/29|03:44 PM|270.254.6156|TextMessaging|--|0.0|0.00
156|07/29|03:43 PM|--|Web|--|119.46|0.00
157|07/29|03:36 PM|270.254.6156|TextMessaging|--|0.0|0.00
158|07/29|03:36 PM|270.254.6156|TextMessaging|--|0.0|0.00
159|07/29|03:36 PM|270.254.6156|TextMessaging|--|0.0|0.00
160|07/29|03:35 PM|270.254.6156|TextMessaging|--|0.0|0.00
161|07/29|03:35 PM|270.254.6156|TextMessaging|--|0.0|0.00
162|07/29|03:28 PM|270.254.6156|TextMessaging|--|0.0|0.00
163|07/29|03:16 PM|270.254.6156|TextMessaging|--|0.0|0.00
164|07/29|03:12 PM|270.254.6156|TextMessaging|--|0.0|0.00
165|07/29|03:08 PM|717.537.7243|TextMessaging|--|0.0|0.00
166|07/29|03:07 PM|270.254.6156|MultimediaMessaging|--|0.0|0.00
167|07/29|03:07 PM|270.254.6156|TextMessaging|--|0.0|0.00
168|07/29|02:43 PM|--|Web|--|113.76|0.00
169|07/29|02:29 PM|270.816.4568|TextMessaging|--|0.0|0.00
170|07/29|01:43 PM|--|Web|--|47375.0|0.00
171|07/29|12:43 PM|270.254.6156|TextMessaging|--|0.0|0.00
172|07/29|12:43 PM|--|Web|--|230.42|0.00
173|07/29|12:42 PM|270.816.4568|TextMessaging|--|0.0|0.00
174|07/29|12:42 PM|270.816.4568|TextMessaging|--|0.0|0.00
175|07/29|12:41 PM|270.254.6156|TextMessaging|--|0.0|0.00
176|07/29|12:41 PM|270.816.4568|TextMessaging|--|0.0|0.00
177|07/29|12:40 PM|270.254.6156|TextMessaging|--|0.0|0.00
178|07/29|12:40 PM|270.254.6156|TextMessaging|--|0.0|0.00
179|07/29|12:39 PM|270.816.4568|TextMessaging|--|0.0|0.00
180|07/29|11:43 AM|--|Web|--|83056.0|0.00
181|07/29|10:53 AM|270.908.8408|TextMessaging|--|0.0|0.00
182|07/29|10:53 AM|270.908.8408|TextMessaging|--|0.0|0.00
183|07/29|10:53 AM|270.908.8408|TextMessaging|--|0.0|0.00
184|07/29|10:43 AM|--|Web|--|1006.0|0.00
185|07/29|10:04 AM|270.254.6156|TextMessaging|--|0.0|0.00
186|07/29|09:58 AM|844.908.3182|TextMessaging|--|0.0|0.00
187|07/29|09:43 AM|--|Web|--|2556.0|0.00
188|07/29|08:43 AM|--|Web|--|642.0|0.00
189|07/29|07:43 AM|--|Web|--|489.0|0.00
190|07/29|06:43 AM|--|Web|--|390.0|0.00
191|07/29|05:43 AM|--|Web|--|378.0|0.00
192|07/29|04:43 AM|--|Web|--|4924.0|0.00
193|07/29|03:43 AM|--|Web|--|683.0|0.00
194|07/29|02:43 AM|--|Web|--|16151.0|0.00
195|07/29|01:43 AM|--|Web|--|4537.0|0.00
196|07/29|12:43 AM|--|Web|--|88341.0|0.00
197|07/28|11:43 PM|--|Web|--|2588.0|0.00
198|07/28|11:31 PM|270.816.4568|TextMessaging|--|0.0|0.00
199|07/28|11:19 PM|270.816.4568|TextMessaging|--|0.0|0.00
200|07/28|11:17 PM|270.816.4568|TextMessaging|--|0.0|0.00
201|07/28|11:14 PM|270.816.4568|TextMessaging|--|0.0|0.00
202|07/28|10:43 PM|--|Web|--|409.0|0.00
203|07/28|10:07 PM|270.816.4568|TextMessaging|--|0.0|0.00
204|07/28|10:07 PM|270.816.4568|TextMessaging|--|0.0|0.00
205|07/28|09:43 PM|--|Web|--|6580.0|0.00
206|07/28|09:06 PM|855.894.7420|TextMessaging|--|0.0|0.00
207|07/28|09:06 PM|855.894.7420|TextMessaging|--|0.0|0.00
208|07/28|08:56 PM|270.816.4568|TextMessaging|--|0.0|0.00
209|07/28|08:56 PM|270.816.4568|TextMessaging|--|0.0|0.00
210|07/28|08:54 PM|270.816.4568|TextMessaging|--|0.0|0.00
211|07/28|08:43 PM|270.816.4568|TextMessaging|--|0.0|0.00
212|07/28|08:34 PM|--|Web|--|146.0|0.00
213|07/28|08:33 PM|--|Web|--|470.0|0.00
214|07/28|08:28 PM|--|Web|--|592.0|0.00
215|07/28|08:20 PM|270.816.4568|TextMessaging|--|0.0|0.00
216|07/28|08:19 PM|--|Web|--|286.0|0.00
217|07/28|06:11 PM|--|Web|--|39.0|0.00
218|07/28|06:09 PM|--|Web|--|151.0|0.00
219|07/28|06:00 PM|--|Web|--|155.0|0.00
220|07/28|05:16 PM|--|Web|--|66.0|0.00
221|07/28|05:03 PM|--|Web|--|2456.0|0.00
222|07/28|05:01 PM|270.254.6156|TextMessaging|--|0.0|0.00
223|07/28|04:59 PM|--|Web|--|5050.0|0.00
224|07/28|04:22 PM|270.254.6156|TextMessaging|--|0.0|0.00
225|07/28|04:19 PM|--|Web|--|43546.0|0.00
226|07/28|04:02 PM|270.254.6156|TextMessaging|--|0.0|0.00
227|07/28|03:57 PM|270.254.6156|TextMessaging|--|0.0|0.00
228|07/28|03:56 PM|--|Web|--|15703.0|0.00
229|07/28|03:55 PM|270.254.6156|TextMessaging|--|0.0|0.00
230|07/28|03:54 PM|--|Web|--|3632.0|0.00
231|07/28|03:50 PM|--|Web|--|7004.0|0.00
232|07/28|03:12 PM|--|Web|--|29084.0|0.00
233|07/28|02:12 PM|--|Web|--|117.88|0.00
234|07/28|01:57 PM|270.816.4568|TextMessaging|--|0.0|0.00
235|07/28|01:56 PM|270.816.4568|TextMessaging|--|0.0|0.00
236|07/28|01:56 PM|270.816.4568|TextMessaging|--|0.0|0.00
237|07/28|01:56 PM|270.816.4568|TextMessaging|--|0.0|0.00
238|07/28|01:55 PM|270.816.4568|TextMessaging|--|0.0|0.00
239|07/28|01:54 PM|270.816.4568|TextMessaging|--|0.0|0.00
240|07/28|01:54 PM|270.816.4568|TextMessaging|--|0.0|0.00
241|07/28|01:53 PM|270.816.4568|TextMessaging|--|0.0|0.00
242|07/28|01:12 PM|--|Web|--|56003.0|0.00
243|07/28|01:11 PM|270.816.4568|TextMessaging|--|0.0|0.00
244|07/28|01:11 PM|270.816.4568|TextMessaging|--|0.0|0.00
245|07/28|12:47 PM|270.816.4568|TextMessaging|--|0.0|0.00
246|07/28|12:43 PM|270.254.0039|TextMessaging|--|0.0|0.00
247|07/28|12:12 PM|--|Web|--|58223.0|0.00
248|07/28|11:12 AM|--|Web|--|68.0|0.00
249|07/28|03:05 AM|--|Web|--|2491.0|0.00
250|07/28|01:02 AM|--|Web|--|74189.0|0.00
251|07/28|12:02 AM|--|Web|--|182.08|0.00
252|07/28|12:00 AM|--|Web|--|23193.0|0.00
