{
    "$schema": "http://json-schema.org/draft-06/schema#",
    "schemaType": "subjectAccessRequest",
    "description": "Detailed information of your Yahoo! Groups",
    "additionalProperties": false,
    "title": "Yahoo! Groups Data",
    "definitions": {
        "email_pref_object": {
            "description": "User email preference object",
            "type": "object",
            "title": "Email Preference",
            "properties": {
                "allowInvitations": {
                    "description": "Boolean flag for Invitations",
                    "type": "string",
                    "title": "Allow Intivitations flag"
                },
                "allowEmailUpdates": {
                    "description": "Boolean flag for Email updates",
                    "type": "string",
                    "title": "Allow status flag"
                },
                "alternateEmailAddress": {
                    "description": "Alternate email address",
                    "type": "string",
                    "title": "Alternate email address"
                }
            }
        },
        "user_group_assoc": {
            "description": "Detailed Group and User Association Information",
            "type": "object",
            "title": "Group and User Association",
            "properties": {
                "groupUser": {"$ref": "#/definitions/group_user_object"},
                "groupInfo": {"$ref": "#/definitions/group_object"}
            }
        },
        "group_user_object": {
            "type": "object",
            "properties": {
                "firstName": {
                    "description": "Your First Name in this group",
                    "type": "string",
                    "title": "First Name"
                },
                "lastName": {
                    "description": "Your Last Name in this group",
                    "type": "string",
                    "title": "Last Name"
                },
                "navigationPreferences": {
                    "description": "Your Navigation Preferences in this group. Key will represent the Feature with Value as your navigation preference for that feature.",
                    "type": "array",
                    "title": "Your Navigation Preferences",
                    "items": {
                        "type": "object",
                        "properties": {
                            "feature": {
                                "description": "Name of your Groups feature",
                                "type": "string",
                                "title": "Groups Feature"
                            },
                            "preference": {
                                "description": "Navigation Preference for this faeture",
                                "type": "string",
                                "title": "Navigation Preference"
                            }
                        }
                    }
                },
                "subscriptionType": {
                    "description": "Your subscription type in this group",
                    "type": "string",
                    "title": "Your subscription type"
                },
                "discloseEmail": {
                    "description": "Your Email Disclose status (Yes/No) in this group",
                    "type": "string",
                    "title": "Your Email Disclosed?"
                },
                "email": {
                    "description": "Your Email associated with this group",
                    "type": "string",
                    "title": "Your Email"
                },
                "sortAndViewPreferences": {
                    "type": "array",
                    "items": {
                        "type": "object",
                        "properties": {
                            "feature": {
                                "description": "Name of your Groups feature",
                                "type": "string",
                                "title": "Groups Feature"
                            },
                            "preference": {
                                "description": "Sort and View Preference. Key will represent the sort preference with Value as your view preference for that feature.",
                                "type": "object",
                                "title": "Sort and View Preference",
                                "properties": {
                                    "sortPreference": {
                                        "description": "Preference of Order for a feature",
                                        "type": "string",
                                        "title": "Order Preference"
                                    },
                                    "viewPreference": {
                                        "description": "Preference of View for a feature",
                                        "type": "string",
                                        "title": "View Preference"
                                    }
                                }
                            }
                        }
                    }
                }
            }
        },
        "bounce_history_object": {
            "type": "object",
            "properties": {
                "totalBounces": {
                    "description": "Bouncing count of this bouncing email address",
                    "type": "number",
                    "title": "Total Bounces"
                },
                "reactivationRequests": {
                    "description": "Count of Reactivation requests for this bouncing email address",
                    "type": "number",
                    "title": "Reactivation request count"
                },
                "lastRequestSent": {
                    "description": "Time of Last Reactivation Request sent for this bouncing email address",
                    "type": "string",
                    "title": "Last Reactivation Request Time"
                }
            }
        },
        "control_panel_object": {
            "description": "Groups Control Panel settings",
            "type": "object",
            "title": "Groups Control Panel",
            "properties": {
                "accessControl": {
                    "description": "Control who can access your groups features and also customize each features access level. Members - Members can view and edit, Limited - Members can view, moderators can view/edit, Moderators - Members cannot view/edit, only moderators can view/edit, Off - None can view/edit",
                    "type": "object",
                    "title": "Feature Access Control",
                    "properties": {
                        "database": {
                            "description": "Who can access Database feature ?",
                            "title": "Who can access Database feature ?",
                            "type": "string",
                            "enum": [
                                "Members",
                                "Limited",
                                "Moderators",
                                "Off"
                            ]
                        },
                        "messagePost": {
                            "description": "Who can post messages to your Groups ?",
                            "title": "Who can post Messages ?",
                            "type": "string",
                            "enum": [
                                "Members",
                                "Limited",
                                "Moderators",
                                "Off"
                            ]
                        },
                        "members": {
                            "description": "Who can access/edit Members information ?",
                            "title": "Who can access Members information ?",
                            "type": "string",
                            "enum": [
                                "Members",
                                "Limited",
                                "Moderators",
                                "Off"
                            ]
                        },
                        "files": {
                            "description": "Who can access Files feature ?",
                            "title": "Who can access Files feature ?",
                            "type": "string",
                            "enum": [
                                "Members",
                                "Limited",
                                "Moderators",
                                "Off"
                            ]
                        },
                        "messageView": {
                            "description": "Who can view your Groups Messages ?",
                            "title": "Who can view Messages ?",
                            "type": "string",
                            "enum": [
                                "Members",
                                "Limited",
                                "Moderators",
                                "Off"
                            ]
                        },
                        "polls": {
                            "description": "Who can access Polls feature ?",
                            "title": "Who can access Polls feature ?",
                            "type": "string",
                            "enum": [
                                "Members",
                                "Limited",
                                "Moderators",
                                "Off"
                            ]
                        },
                        "links": {
                            "description": "Who can access Links feature ?",
                            "title": "Who can access Links feature ?",
                            "type": "string",
                            "enum": [
                                "Members",
                                "Limited",
                                "Moderators",
                                "Off"
                            ]
                        },
                        "photos": {
                            "description": "Who can access/upload Photos ?",
                            "title": "Who can access Photos ?",
                            "type": "string",
                            "enum": [
                                "Members",
                                "Limited",
                                "Moderators",
                                "Off"
                            ]
                        },
                        "events": {
                            "description": "Who can access Groups Calendar ?",
                            "title": "Who can access Groups Calendar ?",
                            "type": "string",
                            "enum": [
                                "Members",
                                "Limited",
                                "Moderators",
                                "Off"
                            ]
                        }
                    }
                },
                "groupEmailTemplates": {
                    "description": "Group Email Template settings.",
                    "type": "object",
                    "title": "Group Email Template",
                    "properties": {
                        "emailSubjectTemplate": {
                            "description": "Your Groups Email Subject Template",
                            "type": "string",
                            "title": "Groups Email Subject Template"
                        },
                        "emailFooterTemplate": {
                            "description": "Your Groups Email footer Template",
                            "type": "string",
                            "title": "Groups Email Footer Template"
                        }
                    }
                },
                "moderation": {
                    "description": "Groups moderation control settings. Moderated - Every item posting is moderated, Unmoderated - None of any item posting is moderated, ModeratedForNew - Enable moderation for members that join the group after this setting is enabled",
                    "type": "object",
                    "title": "Groups moderation settings",
                    "properties": {
                        "messagesModeration": {
                            "description": "Your Groups Messages Moderation",
                            "title": "Messages Moderation",
                            "enum": [
                                "Moderated",
                                "Unmoderated",
                                "ModeratedForNew"
                            ]
                        },
                        "photosModeration": {
                            "description": "Your Groups Photos Moderation",
                            "title": "Photos Moderation",
                            "enum": [
                                "Moderated",
                                "Unmoderated",
                                "ModeratedForNew"
                            ]
                        }
                    }
                },
                "groupSettings": {
                    "description": "General group settings, Key will represent setting name and Value represent setting value",
                    "type": "object",
                    "title": "Group Settings",
                    "properties": {
                        "groupType": {
                            "description": "Type of the your Group",
                            "type": "string",
                            "title": "Group Type",
                            "enum": [
                                "Public",
                                "Restricted",
                                "Private",
                                "Custom"
                            ]
                        },
                        "subscriptionControl": {
                            "description": "Subscription Control, which defines who can join the group. Open - Anyone can join. Moderated - Anyone can apply, but requires Moderator approval. Invitation - This is not an open group and needs invitation to join.",
                            "type": "string",
                            "title": "Subscription Control of the Group",
                            "enum": [
                                "Open",
                                "Moderated",
                                "Invitation"
                            ]
                        },
                        "allowMembersToHideEmail": {
                            "description": "Allow members to hide their email address from the group",
                            "type": "string",
                            "title": "Allow Members to Hide Email",
                            "enum": [
                                "Yes",
                                "No"
                            ]
                        },
                        "domainRestriction": {
                            "description": "Restrict membership by email domain",
                            "type": "array",
                            "title": "Membership domain restrictions",
                            "items": {"type": "string"}
                        },
                        "emailPreference": {
                            "description": "Groups Email preference which controls Email format and attachments.",
                            "type": "string",
                            "title": "Email preference"
                        },
                        "messageReplyTo": {
                            "description": "Reply-to Setting for group message composing.",
                            "type": "string",
                            "title": "Group Message Reply-To Setting",
                            "enum": [
                                "Members",
                                "Sender",
                                "Owner",
                                "LeaveGroup",
                                "MembersAndSender"
                            ]
                        },
                        "spamFilteringEnabled": {
                            "description": "Is Spam filtering Enabled for the group?",
                            "type": "string",
                            "title": "Spam filtering Enabled?",
                            "enum": [
                                "Yes",
                                "No"
                            ]
                        }
                    }
                }
            }
        },
        "user_object": {
            "description": "General User information",
            "type": "object",
            "title": "User details",
            "properties": {
                "groupRoles": {
                    "description": "Mapping from your groups and your role in them.",
                    "type": "array",
                    "title": "Your Group Roles",
                    "items": {"$ref": "#/definitions/groupMembership"}
                },
                "emailPreferences": {
                    "type": "array",
                    "items": {
                        "description": "Your Email and preferences",
                        "type": "object",
                        "title": "Email and preferences",
                        "properties": {
                            "preferences": {"$ref": "#/definitions/email_pref_object"},
                            "email": {
                                "description": "Email address of the user",
                                "type": "string",
                                "title": "Email"
                            }
                        }
                    }
                },
                "bounceHistories": {
                    "type": "array",
                    "items": {
                        "description": "Email and bounce history mapping",
                        "type": "object",
                        "title": "Email and bounce history",
                        "properties": {
                            "bounceHistory": {"$ref": "#/definitions/bounce_history_object"},
                            "email": {
                                "description": "Email address of the user",
                                "type": "string",
                                "title": "Email"
                            }
                        }
                    }
                }
            }
        },
        "group_object": {
            "description": "Detailed Group information",
            "type": "object",
            "title": "Group Information",
            "properties": {
                "controlPanel": {
                    "description": "Infromation related Group Control Panel",
                    "title": "Group Control Panel",
                    "$ref": "#/definitions/control_panel_object"
                },
                "groupMembers": {
                    "format": "uri",
                    "description": "URL to download list of group members",
                    "type": "string",
                    "title": "Group Members Download URL"
                },
                "groupModerators": {
                    "format": "uri",
                    "description": "URL to download list of group members",
                    "type": "string",
                    "title": "Group Members Download URL"
                },
                "groupBannedMembers": {
                    "format": "uri",
                    "description": "URL to download list of group members",
                    "type": "string",
                    "title": "Group Members Download URL"
                },
                "groupPublicEmailAddresses": {
                    "description": "Email addresses of your group. Key will represent scenario of the groups email and Value will represent the email address corresponding to that scenario.",
                    "type": "object",
                    "title": "Group's Email addresses",
                    "properties": {
                        "groupsOwner": {
                            "description": "Email address used to contact Owner of the Group",
                            "type": "string",
                            "title": "Contact Group's Owner"
                        },
                        "postingToGroup": {
                            "description": "Email address used to post to your Group",
                            "type": "string",
                            "title": "Groups posting Email Address"
                        },
                        "joiningGroup": {
                            "description": "Email address used to join your Group.",
                            "type": "string",
                            "title": "Group Joining Email Address"
                        },
                        "leavingGroup": {
                            "description": "Email address used to leave your Group.",
                            "type": "string",
                            "title": "Group leaving Email Address"
                        }
                    }
                },
                "basicGroupInfo": {
                    "description": "Your Basic Group information.",
                    "type": "object",
                    "title": "Basic Group information",
                    "properties": {
                        "groupCreationDate": {
                            "description": "Group Creation date",
                            "type": "string",
                            "title": "Group Creation date"
                        },
                        "groupName": {
                            "description": "Name of the group",
                            "type": "string",
                            "title": "Name of the group"
                        },
                        "groupDescription": {
                            "description": "Description of the Group",
                            "type": "string",
                            "title": "Description of the Group"
                        },
                        "groupSummary": {
                            "description": "Summary of the Group",
                            "type": "string",
                            "title": "Summary of the Group"
                        },
                        "groupCategory": {
                            "description": "Category of the Group",
                            "type": "string",
                            "title": "Group's Category"
                        },
                        "groupWebsite": {
                            "description": "Website of the Group",
                            "type": "string",
                            "title": "Group's Website"
                        },
                        "groupLanguage": {
                            "description": "Language of the Group",
                            "type": "string",
                            "title": "Lnaguage of the Group"
                        },
                        "groupWebAddress": {
                            "description": "Web address of the Group",
                            "type": "string",
                            "title": "Group's WebAddress"
                        }
                    }
                },
                "groupBouncingMembers": {
                    "format": "uri",
                    "description": "URL to download list of group members",
                    "type": "string",
                    "title": "Group Members Download URL"
                }
            }
        },
        "groupMembership": {
            "type": "object",
            "properties": {
                "groupName": {
                    "description": "Name of the Group",
                    "type": "string",
                    "title": "Group Name"
                },
                "role": {
                    "description": "Your role in the Group.",
                    "type": "string",
                    "title": "Group Role"
                }
            }
        }
    },
    "properties": {
        "userInfo": {
            "description": "Detailed User information",
            "title": "User Information",
            "$ref": "#/definitions/user_object"
        },
        "groupsInfo": {
            "description": "Detailed Group information of all your Group",
            "type": "array",
            "title": "Your Groups information",
            "items": {"$ref": "#/definitions/user_group_assoc"}
        }
    },
    "$id": "http://groups.yahoo.com/neo/gdpr/subject_v004.json"
}