{
    "content_providers": [
        {
            "name": "ymail",
            "isConnected": false
        },
        {
            "name": "flickr",
            "isConnected": false
        },
        {
            "name": "gdrive",
            "isConnected": false
        },
        {
            "name": "facebook",
            "isConnected": false
        },
        {
            "name": "dropbox",
            "isConnected": false
        },
        {
            "name": "tripod",
            "isConnected": false
        },
        {
            "name": "amazon",
            "isConnected": false
        }
    ],
    "user_activity_profile": [{
        "subscriptions": {},
        "unsubscribe": {"unsubscribeList": []},
        "userProfile": {"attributesList": [
            {
                "segment_inactivesince": "20200714",
                "datasource": "MAIL",
                "segment_activedays": "0",
                "segment_previousid": "0",
                "segment_id": "0",
                "platform": "WEB_DESKTOP"
            },
            {
                "segment_inactivesince": "20200714",
                "datasource": "MAIL",
                "segment_activedays": "3",
                "segment_previousid": "0",
                "segment_id": "2",
                "platform": "WEB_MOBILE"
            },
            {
                "segment_inactivesince": "20200714",
                "datasource": "MAIL",
                "segment_activedays": "3",
                "segment_previousid": "0",
                "segment_id": "2",
                "platform": "OVERALL"
            },
            {
                "segment_inactivesince": "20200714",
                "datasource": "MAIL",
                "segment_activedays": "2",
                "segment_previousid": "0",
                "segment_id": "1",
                "platform": "SEARCH"
            },
            {
                "country": "United States",
                "gender": "n",
                "ageinterval": "AGE_25-34",
                "mcc": {
                    "last_seen": "20200714",
                    "received": [],
                    "opened": []
                }
            }
        ]}
    }],
    "mail_settings": {
        "web.searchSortBy": 2,
        "web.autoSuggestHideFacebookFooter": false,
        "web.mailTheme": "purple",
        "web.collapsedSportRail": 0,
        "xobni": {"xobnifiedState": "NONE"},
        "web.lastObservedTimezone": "",
        "web.desktopNotification": 0,
        "web.actionAfterMsgMove": 3,
        "vacationPreferences": {
            "messageBody": "",
            "endDate": 0,
            "enabled": false,
            "startDate": 0
        },
        "disposableAddressesPrefix": {
            "deaDomain": "yahoo.com",
            "deaPrefix": ""
        },
        "web.systemTabs": [],
        "web.ymv": 4,
        "web.sportSelectedTeam": "",
        "web.openedTabs": [],
        "web.composeShowCc": false,
        "deliveryBlockedSenders": {"senders": []},
        "web.blockImages": true,
        "web.postcardTheme": "purple",
        "web.emojiRecentlyUsed": [],
        "web.expandedFolders": [],
        "ymvMobile": 0,
        "web.interstitialFrequency": 1591233047444,
        "web.timezone": "",
        "web.autoSuggestHideLinkedinFooter": false,
        "web.showSmartViews": true,
        "mobileweb.showImages": true,
        "web.enableConversations": true,
        "web.norrinOnboard": ["mobileOnboardingCue,1591233051,0001"],
        "web.themeMode": "light",
        "hasAds": true,
        "web.keyTasksPanel": [],
        "web.clientBuckets": [],
        "web.mailTabs": false,
        "web.ccOnSend": false,
        "web.markAsReadInterval": 0,
        "web.cancelClickOnHoverDeleteCount": 0,
        "web.showUnsubscribeNotification": true,
        "secureMode": false,
        "web.stationeryTheme": "",
        "web.useRichText": true,
        "web.magicTriageUserVisits": [
            false,
            false,
            false,
            false,
            false,
            false,
            false
        ],
        "web.suppressEmptyFolderVideo": 0,
        "web.previousClientVersion": -1,
        "web.peopleNotification": false,
        "mobileweb.notifications": true,
        "mailboxSize": 29478,
        "web.showCustomFolders": true,
        "web.isUdbMigrationComplete": false,
        "web.emailSubscriptions": [],
        "mailOnBoard": [],
        "web.importantNotification": false,
        "web.confirmBeforeDelete": true,
        "web.magicTriageTimestamp": 0,
        "web.showCloudFilePermissionsDialog": true,
        "web.composeShowBcc": false,
        "messageFilters": {"filters": []},
        "web.clientVersionHistory": "",
        "web.numUnsubscribedItems": 0,
        "web.composeFontFamily": "Helvetica Neue",
        "web.composeFontSize": "16",
        "web.enableTweet": false,
        "web.bccOnSend": false,
        "web.hideLinkedinReconnect": false,
        "web.enableEnhancerLinkPreview": true,
        "web.generalSnippet": true,
        "web.addUnknownContact": true,
        "web.showEmailHistory": true,
        "web.mailPreviewPane": 0,
        "web.unsubscribeTimestamp": 0,
        "web.breakingNews": true,
        "web.showAllSystemFolders": true,
        "web.hideAd": false,
        "web.msgsListDensity": 2
    },
    "recent_searches": [],
    "accounts": [{
        "sendingName": "Thomas Turner",
        "signatureActive": true,
        "isSending": true,
        "priority": 1000,
        "type": "FREE",
        "createTime": 1591233047,
        "isPrimary": true,
        "isSelected": true,
        "linkedAccounts": [],
        "id": "1",
        "authType": "NONE",
        "email": "turner.thomas24@yahoo.com",
        "accountVerified": true,
        "status": "ENABLED"
    }],
    "saved_searches": [
        {
            "types": ["FLAG"],
            "query": "is:unread",
            "name": "Unread",
            "id": "s1",
            "priority": 500
        },
        {
            "types": ["FLAG"],
            "query": "is:starred",
            "name": "Starred",
            "id": "s2",
            "priority": 500
        },
        {
            "types": ["CLASSIFICATION"],
            "query": "is:personal",
            "name": "People",
            "decorations": [{
                "id": "PE",
                "type": "NORMAL"
            }],
            "id": "s3",
            "priority": 501
        },
        {
            "types": ["CLASSIFICATION"],
            "query": "is:social",
            "name": "Social",
            "decorations": [{
                "id": "SO",
                "type": "NORMAL"
            }],
            "id": "s4",
            "priority": 501
        },
        {
            "types": ["CLASSIFICATION"],
            "query": "is:travel",
            "name": "Travel",
            "decorations": [{
                "id": "TR",
                "type": "NORMAL"
            }],
            "id": "s5",
            "priority": 501
        },
        {
            "types": ["CLASSIFICATION"],
            "query": "is:shopping",
            "name": "Shopping",
            "decorations": [{
                "id": "SH",
                "type": "NORMAL"
            }],
            "id": "s6",
            "priority": 501
        },
        {
            "types": ["CLASSIFICATION"],
            "query": "is:financial",
            "name": "Finance",
            "decorations": [{
                "id": "FI",
                "type": "NORMAL"
            }],
            "id": "s7",
            "priority": 501
        },
        {
            "types": ["FILTER"],
            "accountIds": ["1"],
            "query": "decoId:OOS acctId:1",
            "name": "OOS",
            "decorations": [{
                "id": "F25",
                "type": "FOLDER"
            }],
            "id": "fOOS",
            "priority": 1000
        }
    ]
}