{
    "settings": {
        "emails": [{
            "isVerified": true,
            "confirmedTime": "Jan 01, 1970 12:00 AM UTC",
            "addedTime": "Nov 24, 2012 11:11 PM UTC",
            "isMarkedAsDeleted": false,
            "contexts": ["Security"],
            "email": "number1_mooron_5@hotmail.com",
            "verifiedTime": "Jul 10, 2020 10:45 PM UTC"
        }],
        "identifiers": {"aliases": [
            {
                "identifier": "0a693470b288c373d6dea91421c185b2",
                "attributes": []
            },
            {
                "identifier": "number1_mooron_5@hotmail.com",
                "attributes": ["External Email"]
            },
            {
                "identifier": "turner.thomas24",
                "domain": "yahoo.com",
                "attributes": ["Yid"]
            }
        ]},
        "legalData": {"universalTOS": {
            "jurisdiction": "us",
            "language": "en-US",
            "id": "oath_freereg",
            "timestamp": "Jun 04, 2020 01:11 AM UTC"
        }},
        "personalSettings": {
            "firstName": "Thomas",
            "lastName": "Turner",
            "address": {},
            "gender": "Unknown",
            "nickname": "Thomas",
            "birthDate": "1990-04-27"
        }
    },
    "locales": ["en-US"],
    "coppa": {},
    "devices": {
        "1": {
            "deviceType": "Browser",
            "lastSeenTime": "Jul 14, 2020 12:56 AM UTC",
            "deviceTypeId": "smartphone",
            "browserId": "safari mobile",
            "creationTime": "Jan 01, 1970 12:00 AM UTC",
            "isActiveSession": true,
            "osId": "ios"
        },
        "2": {
            "lastSeenTime": "Jul 10, 2020 10:46 PM UTC",
            "deviceTypeId": "smartphone",
            "browserId": "safari mobile",
            "creationTime": "Jan 01, 1970 12:00 AM UTC",
            "isActiveSession": true,
            "osId": "ios"
        },
        "3": {
            "lastSeenTime": "Jul 10, 2020 03:00 AM UTC",
            "deviceTypeId": "smartphone",
            "browserId": "safari mobile",
            "creationTime": "Jan 01, 1970 12:00 AM UTC",
            "isActiveSession": false,
            "osId": "ios"
        },
        "4": {
            "deviceType": "Browser",
            "lastSeenTime": "Jun 04, 2020 04:46 AM UTC",
            "deviceTypeId": "smartphone",
            "browserId": "safari mobile",
            "creationTime": "Jan 01, 1970 12:00 AM UTC",
            "isActiveSession": false,
            "osId": "ios"
        },
        "5": {
            "lastSeenTime": "Jun 04, 2020 01:29 AM UTC",
            "deviceTypeId": "smartphone",
            "browserId": "safari mobile",
            "creationTime": "Jan 01, 1970 12:00 AM UTC",
            "isActiveSession": false,
            "osId": "ios"
        }
    },
    "oauth2Clients": {"1": {
        "client": {
            "name": "UserVoice",
            "scopes": ["Profiles"]
        },
        "authorizedScopes": ["Profiles"],
        "authorizationTime": "Jul 14, 2020 01:05 AM UTC"
    }},
    "authActivity": {"authFactorChange": [
        {"eventTime": "Jul 10, 2020 10:45 PM UTC"},
        {"eventTime": "Jul 08, 2020 02:12 PM UTC"},
        {"eventTime": "Jun 04, 2020 01:10 AM UTC"},
        {"eventTime": "Nov 24, 2012 11:11 PM UTC"}
    ]},
    "accountCreationTime": "Nov 24, 2012 11:11 PM UTC",
    "openIdData": {}
}