{"data": {"pages": [{
    "name": "My Main Tab",
    "theme": "Classic My",
    "sections": [
        {
            "settings": {
                "default": "",
                "folders": [
                    {
                        "bookmarks": [],
                        "name": ""
                    },
                    {
                        "bookmarks": [],
                        "name": "Uncategorized"
                    }
                ]
            },
            "name": "Bookmarks"
        },
        {"name": "My Portfolio"},
        {
            "name": "News Reader",
            "url": "http://news.yahoo.com/rss/entertainment"
        },
        {"name": "Trending Now"},
        {"name": "News For You"},
        {
            "settings": {"scale": "f"},
            "name": "Weather"
        },
        {
            "settings": {"sign": "Taurus"},
            "name": "Horoscope"
        },
        {
            "name": "News Reader",
            "url": "http://finance.yahoo.com/marketupdate/overview/rss"
        },
        {
            "name": "News Reader",
            "url": "http://www.ajc.com/services/content/feeds/topnews.local.xml"
        },
        {
            "name": "News Reader",
            "url": "http://www.ajc.com/feeds/content/feeds/index.xml"
        },
        {
            "settings": {"mails": "gmail"},
            "name": "My Mail"
        },
        {
            "name": "News Reader",
            "url": "http://news.yahoo.com/rss/"
        },
        {
            "name": "News Reader",
            "url": "http://news.yahoo.com/rss/world"
        },
        {
            "name": "News Reader",
            "url": "http://finance.yahoo.com/news/?format=rss"
        }
    ]
}]}}