{
    "$schema": "http://json-schema.org/draft-06/schema#",
    "schemaType": "subjectAccessRequest",
    "categoryData": {
        "thirdParty": ["Product does not share your personal information for commercial purposes"],
        "sharedData": ["Product does not share your personal information for commercial purposes"],
        "businessPurpose": ["Performing services on behalf of Verizon Media"],
        "disclosedData": ["Product does not disclose your personal information for business purposes"],
        "collectedData": [
            "Contact Information",
            "Content Inferences"
        ],
        "serviceProvider": ["Product does not disclose your personal information for business purposes"],
        "source": ["Verizon Media websites and apps"],
        "commercialPurpose": ["Product does not share your personal information for commercial purposes"],
        "productName": "Money (TW)"
    },
    "description": "TW Money User input data",
    "title": "TW Money Desktop Fund Watchlist",
    "properties": {"fundlist": {
        "description": "My fund watch list on TW Money site.",
        "type": "array",
        "title": "My Fund Watchlist",
        "items": {
            "type": "object",
            "properties": {
                "alertOriginalPrice": {
                    "description": "Current price when user set alert criteria.",
                    "type": "string",
                    "title": "Base Price"
                },
                "alertLowPrice": {
                    "description": "User set low limit alert by price.",
                    "type": "string",
                    "title": "Low Limit of Price"
                },
                "modTime": {
                    "description": "Date where alert criteria was last modified.",
                    "type": "string",
                    "title": "Last Update Date"
                },
                "alertLowPct": {
                    "description": "User set low limit alert by performance %.",
                    "type": "string",
                    "title": "Low Limit of Performance %"
                },
                "fundName": {
                    "description": "Fund Name.",
                    "type": "string",
                    "title": "Fund Name"
                },
                "alertHighPct": {
                    "description": "User set high limit alert by performance %.",
                    "type": "string",
                    "title": "High Limit of Performance %"
                },
                "alertHighPrice": {
                    "description": "User set high limit alert by price.",
                    "type": "string",
                    "title": "High Limit of Price"
                }
            }
        }
    }},
    "$id": "http://www.yahoo.com/tw_money_v8#"
}