{
    "$schema": "http://json-schema.org/draft-06/schema#",
    "schemaType": "subjectAccessRequest",
    "categoryData": {
        "thirdParty": ["Product does not share your personal information for commercial purposes"],
        "sharedData": ["Product does not share your personal information for commercial purposes"],
        "businessPurpose": ["Performing services on behalf of Verizon Media"],
        "disclosedData": ["Product does not disclose your personal information for business purposes"],
        "collectedData": [
            "Internet or Electronic Network Activity Information",
            "Geolocation Information"
        ],
        "serviceProvider": ["Product does not disclose your personal information for business purposes"],
        "source": ["Verizon Media websites and apps"],
        "commercialPurpose": ["Product does not share your personal information for commercial purposes"],
        "productName": "Yahoo! App"
    },
    "description": "Your Yahoo data",
    "title": "Yahoo GDPR Privacy Dashboard Subject Access Request Schema",
    "properties": {"topics": {
        "description": "Topics you\u2019ve followed on Yahoo",
        "type": "array",
        "title": "Followed Topics",
        "items": [{
            "description": "Topics you\u2019ve followed on Yahoo",
            "type": "object",
            "title": "Followed Topics",
            "properties": {
                "name": {
                    "description": "Name of the Topic",
                    "type": "string",
                    "title": "Topic Name"
                },
                "timestamp": {
                    "description": "Timestamp",
                    "type": "string",
                    "title": "Timestamp"
                }
            }
        }]
    }},
    "$id": "http://yahooapp.gdpr.verizonmedia.com/v6/subject-access-request-schema"
}